%%BeginDocument: ./wholesys2a.eps
%!PS-Adobe-3.0 EPSF-3.0
%%Creator: dvipsk 5.58f Copyright 1986, 1994 Radical Eye Software
%%Title: wholesys1.dvi
%%Pages: 1
%%PageOrder: Ascend
%%BoundingBox: 105 297 520 756
%%DocumentPaperSizes: A4
%%EndComments
%DVIPSCommandLine: dvips wholesys1
%DVIPSParameters: dpi=600, comments removed
%DVIPSSource:  TeX output 1998.05.17:1911
%%BeginProcSet: tex.pro
/TeXDict 250 dict def TeXDict begin /N{def}def /B{bind def}N /S{exch}N
/X{S N}B /TR{translate}N /isls false N /vsize 11 72 mul N /hsize 8.5 72
mul N /landplus90{false}def /@rigin{isls{[0 landplus90{1 -1}{-1 1}
ifelse 0 0 0]concat}if 72 Resolution div 72 VResolution div neg scale
isls{landplus90{VResolution 72 div vsize mul 0 exch}{Resolution -72 div
hsize mul 0}ifelse TR}if Resolution VResolution vsize -72 div 1 add mul
TR[matrix currentmatrix{dup dup round sub abs 0.00001 lt{round}if}
forall round exch round exch]setmatrix}N /@landscape{/isls true N}B
/@manualfeed{statusdict /manualfeed true put}B /@copies{/#copies X}B
/FMat[1 0 0 -1 0 0]N /FBB[0 0 0 0]N /nn 0 N /IE 0 N /ctr 0 N /df-tail{
/nn 8 dict N nn begin /FontType 3 N /FontMatrix fntrx N /FontBBox FBB N
string /base X array /BitMaps X /BuildChar{CharBuilder}N /Encoding IE N
end dup{/foo setfont}2 array copy cvx N load 0 nn put /ctr 0 N[}B /df{
/sf 1 N /fntrx FMat N df-tail}B /dfs{div /sf X /fntrx[sf 0 0 sf neg 0 0]
N df-tail}B /E{pop nn dup definefont setfont}B /ch-width{ch-data dup
length 5 sub get}B /ch-height{ch-data dup length 4 sub get}B /ch-xoff{
128 ch-data dup length 3 sub get sub}B /ch-yoff{ch-data dup length 2 sub
get 127 sub}B /ch-dx{ch-data dup length 1 sub get}B /ch-image{ch-data
dup type /stringtype ne{ctr get /ctr ctr 1 add N}if}B /id 0 N /rw 0 N
/rc 0 N /gp 0 N /cp 0 N /G 0 N /sf 0 N /CharBuilder{save 3 1 roll S dup
/base get 2 index get S /BitMaps get S get /ch-data X pop /ctr 0 N ch-dx
0 ch-xoff ch-yoff ch-height sub ch-xoff ch-width add ch-yoff
setcachedevice ch-width ch-height true[1 0 0 -1 -.1 ch-xoff sub ch-yoff
.1 sub]{ch-image}imagemask restore}B /D{/cc X dup type /stringtype ne{]}
if nn /base get cc ctr put nn /BitMaps get S ctr S sf 1 ne{dup dup
length 1 sub dup 2 index S get sf div put}if put /ctr ctr 1 add N}B /I{
cc 1 add D}B /bop{userdict /bop-hook known{bop-hook}if /SI save N @rigin
0 0 moveto /V matrix currentmatrix dup 1 get dup mul exch 0 get dup mul
add .99 lt{/QV}{/RV}ifelse load def pop pop}N /eop{SI restore userdict
/eop-hook known{eop-hook}if showpage}N /@start{userdict /start-hook
known{start-hook}if pop /VResolution X /Resolution X 1000 div /DVImag X
/IE 256 array N 0 1 255{IE S 1 string dup 0 3 index put cvn put}for
65781.76 div /vsize X 65781.76 div /hsize X}N /p{show}N /RMat[1 0 0 -1 0
0]N /BDot 260 string N /rulex 0 N /ruley 0 N /v{/ruley X /rulex X V}B /V
{}B /RV statusdict begin /product where{pop product dup length 7 ge{0 7
getinterval dup(Display)eq exch 0 4 getinterval(NeXT)eq or}{pop false}
ifelse}{false}ifelse end{{gsave TR -.1 .1 TR 1 1 scale rulex ruley false
RMat{BDot}imagemask grestore}}{{gsave TR -.1 .1 TR rulex ruley scale 1 1
false RMat{BDot}imagemask grestore}}ifelse B /QV{gsave newpath transform
round exch round exch itransform moveto rulex 0 rlineto 0 ruley neg
rlineto rulex neg 0 rlineto fill grestore}B /a{moveto}B /delta 0 N /tail
{dup /delta X 0 rmoveto}B /M{S p delta add tail}B /b{S p tail}B /c{-4 M}
B /d{-3 M}B /e{-2 M}B /f{-1 M}B /g{0 M}B /h{1 M}B /i{2 M}B /j{3 M}B /k{
4 M}B /w{0 rmoveto}B /l{p -4 w}B /m{p -3 w}B /n{p -2 w}B /o{p -1 w}B /q{
p 1 w}B /r{p 2 w}B /s{p 3 w}B /t{p 4 w}B /x{0 S rmoveto}B /y{3 2 roll p
a}B /bos{/SS save N}B /eos{SS restore}B end
%%EndProcSet
%%BeginProcSet: special.pro
TeXDict begin /SDict 200 dict N SDict begin /@SpecialDefaults{/hs 612 N
/vs 792 N /ho 0 N /vo 0 N /hsc 1 N /vsc 1 N /ang 0 N /CLIP 0 N /rwiSeen
false N /rhiSeen false N /letter{}N /note{}N /a4{}N /legal{}N}B
/@scaleunit 100 N /@hscale{@scaleunit div /hsc X}B /@vscale{@scaleunit
div /vsc X}B /@hsize{/hs X /CLIP 1 N}B /@vsize{/vs X /CLIP 1 N}B /@clip{
/CLIP 2 N}B /@hoffset{/ho X}B /@voffset{/vo X}B /@angle{/ang X}B /@rwi{
10 div /rwi X /rwiSeen true N}B /@rhi{10 div /rhi X /rhiSeen true N}B
/@llx{/llx X}B /@lly{/lly X}B /@urx{/urx X}B /@ury{/ury X}B /magscale
true def end /@MacSetUp{userdict /md known{userdict /md get type
/dicttype eq{userdict begin md length 10 add md maxlength ge{/md md dup
length 20 add dict copy def}if end md begin /letter{}N /note{}N /legal{}
N /od{txpose 1 0 mtx defaultmatrix dtransform S atan/pa X newpath
clippath mark{transform{itransform moveto}}{transform{itransform lineto}
}{6 -2 roll transform 6 -2 roll transform 6 -2 roll transform{
itransform 6 2 roll itransform 6 2 roll itransform 6 2 roll curveto}}{{
closepath}}pathforall newpath counttomark array astore /gc xdf pop ct 39
0 put 10 fz 0 fs 2 F/|______Courier fnt invertflag{PaintBlack}if}N
/txpose{pxs pys scale ppr aload pop por{noflips{pop S neg S TR pop 1 -1
scale}if xflip yflip and{pop S neg S TR 180 rotate 1 -1 scale ppr 3 get
ppr 1 get neg sub neg ppr 2 get ppr 0 get neg sub neg TR}if xflip yflip
not and{pop S neg S TR pop 180 rotate ppr 3 get ppr 1 get neg sub neg 0
TR}if yflip xflip not and{ppr 1 get neg ppr 0 get neg TR}if}{noflips{TR
pop pop 270 rotate 1 -1 scale}if xflip yflip and{TR pop pop 90 rotate 1
-1 scale ppr 3 get ppr 1 get neg sub neg ppr 2 get ppr 0 get neg sub neg
TR}if xflip yflip not and{TR pop pop 90 rotate ppr 3 get ppr 1 get neg
sub neg 0 TR}if yflip xflip not and{TR pop pop 270 rotate ppr 2 get ppr
0 get neg sub neg 0 S TR}if}ifelse scaleby96{ppr aload pop 4 -1 roll add
2 div 3 1 roll add 2 div 2 copy TR .96 dup scale neg S neg S TR}if}N /cp
{pop pop showpage pm restore}N end}if}if}N /normalscale{Resolution 72
div VResolution 72 div neg scale magscale{DVImag dup scale}if 0 setgray}
N /psfts{S 65781.76 div N}N /startTexFig{/psf$SavedState save N userdict
maxlength dict begin /magscale true def normalscale currentpoint TR
/psf$ury psfts /psf$urx psfts /psf$lly psfts /psf$llx psfts /psf$y psfts
/psf$x psfts currentpoint /psf$cy X /psf$cx X /psf$sx psf$x psf$urx
psf$llx sub div N /psf$sy psf$y psf$ury psf$lly sub div N psf$sx psf$sy
scale psf$cx psf$sx div psf$llx sub psf$cy psf$sy div psf$ury sub TR
/showpage{}N /erasepage{}N /copypage{}N /p 3 def @MacSetUp}N /doclip{
psf$llx psf$lly psf$urx psf$ury currentpoint 6 2 roll newpath 4 copy 4 2
roll moveto 6 -1 roll S lineto S lineto S lineto closepath clip newpath
moveto}N /endTexFig{end psf$SavedState restore}N /@beginspecial{SDict
begin /SpecialSave save N gsave normalscale currentpoint TR
@SpecialDefaults count /ocount X /dcount countdictstack N}N /@setspecial
{CLIP 1 eq{newpath 0 0 moveto hs 0 rlineto 0 vs rlineto hs neg 0 rlineto
closepath clip}if ho vo TR hsc vsc scale ang rotate rwiSeen{rwi urx llx
sub div rhiSeen{rhi ury lly sub div}{dup}ifelse scale llx neg lly neg TR
}{rhiSeen{rhi ury lly sub div dup scale llx neg lly neg TR}if}ifelse
CLIP 2 eq{newpath llx lly moveto urx lly lineto urx ury lineto llx ury
lineto closepath clip}if /showpage{}N /erasepage{}N /copypage{}N newpath
}N /@endspecial{count ocount sub{pop}repeat countdictstack dcount sub{
end}repeat grestore SpecialSave restore end}N /@defspecial{SDict begin}
N /@fedspecial{end}B /li{lineto}B /rl{rlineto}B /rc{rcurveto}B /np{
/SaveX currentpoint /SaveY X N 1 setlinecap newpath}N /st{stroke SaveX
SaveY moveto}N /fil{fill SaveX SaveY moveto}N /ellipse{/endangle X
/startangle X /yrad X /xrad X /savematrix matrix currentmatrix N TR xrad
yrad scale 0 0 1 startangle endangle arc savematrix setmatrix}N end
%%EndProcSet
TeXDict begin 39158280 55380996 1000 600 600 (wholesys1.dvi)
@start end
%%EndProlog
%%BeginSetup
%%Feature: *Resolution 600dpi
TeXDict begin
%%PaperSize: A4

/medred {0.7 0.000 0.000 srgb} def
%%EndSetup
%%Page: 1 1
1 0 bop 455 3857 a @beginspecial 0 @llx 0 @lly 400 @urx
426 @ury 4000 @rwi @setspecial
%%BeginDocument: ./wholesys1.eps
/$F2psDict 200 dict def
$F2psDict begin
$F2psDict /mtrx matrix put
/col-1 {} def
/col0 {0.000 0.000 0.000 srgb} bind def
/col1 {0.000 0.000 1.000 srgb} bind def
/col2 {0.000 1.000 0.000 srgb} bind def
/col3 {0.000 1.000 1.000 srgb} bind def
/col4 {1.000 0.000 0.000 srgb} bind def
/col5 {1.000 0.000 1.000 srgb} bind def
/col6 {1.000 1.000 0.000 srgb} bind def
/col7 {1.000 1.000 1.000 srgb} bind def
/col8 {0.000 0.000 0.560 srgb} bind def
/col9 {0.000 0.000 0.690 srgb} bind def
/col10 {0.000 0.000 0.820 srgb} bind def
/col11 {0.530 0.810 1.000 srgb} bind def
/col12 {0.000 0.560 0.000 srgb} bind def
/col13 {0.000 0.690 0.000 srgb} bind def
/col14 {0.000 0.820 0.000 srgb} bind def
/col15 {0.000 0.560 0.560 srgb} bind def
/col16 {0.000 0.690 0.690 srgb} bind def
/col17 {0.000 0.820 0.820 srgb} bind def
/col18 {0.560 0.000 0.000 srgb} bind def
/col19 {0.690 0.000 0.000 srgb} bind def
/col20 {0.820 0.000 0.000 srgb} bind def
/col21 {0.560 0.000 0.560 srgb} bind def
/col22 {0.690 0.000 0.690 srgb} bind def
/col23 {0.820 0.000 0.820 srgb} bind def
/col24 {0.500 0.190 0.000 srgb} bind def
/col25 {0.630 0.250 0.000 srgb} bind def
/col26 {0.750 0.380 0.000 srgb} bind def
/col27 {1.000 0.500 0.500 srgb} bind def
/col28 {1.000 0.630 0.630 srgb} bind def
/col29 {1.000 0.750 0.750 srgb} bind def
/col30 {1.000 0.880 0.880 srgb} bind def
/col31 {1.000 0.840 0.000 srgb} bind def

end
save
-8.0 453.0 translate
1 -1 scale

/clp {closepath} bind def
/ef {eofill} bind def
/gr {grestore} bind def
/gs {gsave} bind def
/l {lineto} bind def
/m {moveto} bind def
/n {newpath} bind def
/s {stroke} bind def
/slc {setlinecap} bind def
/slj {setlinejoin} bind def
/slw {setlinewidth} bind def
/srgb {setrgbcolor} bind def
/rot {rotate} bind def
/sc {scale} bind def
/tr {translate} bind def
/tnt {dup dup currentrgbcolor
  4 -2 roll dup 1 exch sub 3 -1 roll mul add
  4 -2 roll dup 1 exch sub 3 -1 roll mul add
  4 -2 roll dup 1 exch sub 3 -1 roll mul add srgb}
  bind def
/shd {dup dup currentrgbcolor 4 -2 roll mul 4 -2 roll mul
  4 -2 roll mul srgb} bind def
/$F2psBegin {$F2psDict begin /$F2psEnteredState save def} def
/$F2psEnd {$F2psEnteredState restore end} def

$F2psBegin
10 setmiterlimit
 0.06299 0.06299 sc
/Times-Roman findfont 150.00 scalefont setfont
4050 3870 m
gs 1 -1 sc medred (Determination of) col-1 show gr
/Times-Roman findfont 150.00 scalefont setfont
4050 4050 m
gs 1 -1 sc medred (the parameters used for diagnosis:) col-1 show gr
/Times-Roman findfont 150.00 scalefont setfont
4050 4230 m
gs 1 -1 sc medred (QRSd, LAS and RMS) col-1 show gr
/Times-Roman findfont 150.00 scalefont setfont
4680 5536 m
gs 1 -1 sc medred (Multilayer Perceptron:) col-1 show gr
/Times-Roman findfont 150.00 scalefont setfont
4680 5716 m
gs 1 -1 sc medred (Classification of) col-1 show gr
/Times-Roman findfont 150.00 scalefont setfont
4680 5896 m
gs 1 -1 sc medred (QRSd, LAS and RMS) col-1 show gr
/Times-Roman findfont 150.00 scalefont setfont
4680 6076 m
gs 1 -1 sc () col-1 show gr
/Times-Roman findfont 150.00 scalefont setfont
4680 6256 m
gs 1 -1 sc () col-1 show gr
/Times-Roman findfont 150.00 scalefont setfont
4050 2026 m
gs 1 -1 sc medred (Multilayer Peceptron) col-1 show gr
/Times-Roman findfont 150.00 scalefont setfont
4050 2206 m
gs 1 -1 sc medred (for the determination) col-1 show gr
/Times-Roman findfont 150.00 scalefont setfont
4050 2386 m
gs 1 -1 sc medred (of QRS-Onset) col-1 show gr
/Times-Roman findfont 150.00 scalefont setfont
4050 2566 m
gs 1 -1 sc medred (and QRS-Offset) col-1 show gr
/Times-Roman findfont 150.00 scalefont setfont
3826 6976 m
gs 1 -1 sc medred (Output) dup stringwidth pop 2 div neg 0 rmoveto  col-1 show gr
/Times-Roman findfont 150.00 scalefont setfont
3826 7156 m
gs 1 -1 sc medred ("vt/vf"/"healthy") dup stringwidth pop 2 div neg 0 rmoveto  col-1 show gr
/Times-Roman findfont 150.00 scalefont setfont
2026 6976 m
gs 1 -1 sc medred (Output) dup stringwidth pop 2 div neg 0 rmoveto  col-1 show gr
/Times-Roman findfont 150.00 scalefont setfont
2026 7156 m
gs 1 -1 sc medred ("vt/vf"/"healthy") dup stringwidth pop 2 div neg 0 rmoveto  col-1 show gr
/Times-Roman findfont 90.00 scalefont setfont
496 631 m
gs 1 -1 sc medred (name) col-1 show gr
/Times-Roman findfont 90.00 scalefont setfont
496 736 m
gs 1 -1 sc medred (age) col-1 show gr
/Times-Roman findfont 90.00 scalefont setfont
496 841 m
gs 1 -1 sc medred (QRS-On) col-1 show gr
/Times-Roman findfont 90.00 scalefont setfont
496 946 m
gs 1 -1 sc medred (QRS-Off) col-1 show gr
/Times-Roman findfont 90.00 scalefont setfont
496 1051 m
gs 1 -1 sc medred (gain) col-1 show gr
/Times-Roman findfont 90.00 scalefont setfont
496 1156 m
gs 1 -1 sc medred (beats) col-1 show gr
/Times-Roman findfont 90.00 scalefont setfont
2700 4066 m
gs 1 -1 sc medred (RMS = ....) col-1 show gr
/Times-Roman findfont 90.00 scalefont setfont
2700 4171 m
gs 1 -1 sc medred (LAS = ....) col-1 show gr
/Times-Roman findfont 90.00 scalefont setfont
2700 3961 m
gs 1 -1 sc medred (QRSd = ....) col-1 show gr
/Times-Roman findfont 90.00 scalefont setfont
1486 5866 m
gs 1 -1 sc medred (RMS = ....) col-1 show gr
/Times-Roman findfont 90.00 scalefont setfont
1486 5971 m
gs 1 -1 sc medred (LAS = ....) col-1 show gr
/Times-Roman findfont 90.00 scalefont setfont
1486 5761 m
gs 1 -1 sc medred (QRSd = ....) col-1 show gr
/Times-Roman findfont 150.00 scalefont setfont
4051 676 m
gs 1 -1 sc medred (4pole Butterworth-) col-1 show gr
/Times-Roman findfont 150.00 scalefont setfont
4051 856 m
gs 1 -1 sc medred (Filter) col-1 show gr
/Times-Roman findfont 150.00 scalefont setfont
4051 1036 m
gs 1 -1 sc () col-1 show gr
/Times-Roman findfont 150.00 scalefont setfont
4051 1216 m
gs 1 -1 sc () col-1 show gr
/Times-Roman findfont 150.00 scalefont setfont
1262 5898 m
gs 1 -1 sc medred (with the criteria) dup stringwidth pop neg 0 rmoveto  col-1 show gr
/Times-Roman findfont 150.00 scalefont setfont
1262 6078 m
gs 1 -1 sc medred (by "Simson" (2/3)) dup stringwidth pop neg 0 rmoveto  col-1 show gr
/Times-Roman findfont 150.00 scalefont setfont
1262 5718 m
gs 1 -1 sc medred (Classification) dup stringwidth pop neg 0 rmoveto  col-1 show gr
/Times-Roman findfont 150.00 scalefont setfont
451 1576 m
gs 1 -1 sc medred (Inputdata with) col-1 show gr
/Times-Roman findfont 150.00 scalefont setfont
451 1936 m
gs 1 -1 sc medred (QRS-Offset) col-1 show gr
/Times-Roman findfont 150.00 scalefont setfont
451 2116 m
gs 1 -1 sc medred (estimated by an expert) col-1 show gr
/Times-Roman findfont 150.00 scalefont setfont
451 1756 m
gs 1 -1 sc medred (QRS-Onset and) col-1 show gr
7.500 slw
% Polyline
n 450 450 m 1800 450 l  1800 1350 l  450 1350 l  clp  gs col-1 s gr 
% Polyline
n 2250 450 m 3600 450 l  3600 1350 l  2250 1350 l  clp  gs col-1 s gr 
% Polyline
n 2250 1800 m 3600 1800 l  3600 2700 l  2250 2700 l  clp  gs col-1 s gr 
% Polyline
n 2250 3600 m 3600 3600 l  3600 4500 l  2250 4500 l  clp  gs col-1 s gr 
% Polyline
n 3600 900 m 3825 900 l  3825 4050 l  3600 4050 l  gs col-1 s gr 
n 3720.00 4080.00 m 3600.00 4050.00 l 3720.00 4020.00 l  3720.50 4050.50 l 3720.00 4080.00 l clp gs 0.00 setgray ef gr gs col-1 s gr
% Polyline
n 3150 5400 m 4500 5400 l  4500 6300 l  3150 6300 l  clp  gs col-1 s gr 
% Polyline
n 1350 5400 m 2700 5400 l  2700 6300 l  1350 6300 l  clp  gs col-1 s gr 
% Polyline
n 2925 4500 m 2925 4950 l  2025 4950 l  2025 5400 l  gs col-1 s gr 
n 2055.00 5280.00 m 2025.00 5400.00 l 1995.00 5280.00 l  2025.50 5280.50 l 2055.00 5280.00 l clp gs 0.00 setgray ef gr gs col-1 s gr
% Polyline
n 2925 4950 m 3825 4950 l  3825 5400 l  gs col-1 s gr 
n 3855.00 5280.00 m 3825.00 5400.00 l 3795.00 5280.00 l  3825.50 5280.50 l 3855.00 5280.00 l clp gs 0.00 setgray ef gr gs col-1 s gr
% Polyline
n 2925 1350 m 2925 1800 l  gs col-1 s gr 
n 2955.00 1680.00 m 2925.00 1800.00 l 2895.00 1680.00 l  2925.50 1680.50 l 2955.00 1680.00 l clp gs 0.00 setgray ef gr gs col-1 s gr
% Polyline
n 1800 900 m 2250 900 l  gs col-1 s gr 
n 2130.00 870.00 m 2250.00 900.00 l 2130.00 930.00 l  2130.50 900.50 l 2130.00 870.00 l clp gs 0.00 setgray ef gr gs col-1 s gr
% Polyline
n 2025 6300 m 2025 6750 l  gs col-1 s gr 
n 2055.00 6630.00 m 2025.00 6750.00 l 1995.00 6630.00 l  2025.50 6630.50 l 2055.00 6630.00 l clp gs 0.00 setgray ef gr gs col-1 s gr
% Polyline
n 3825 6300 m 3825 6750 l  gs col-1 s gr 
n 3855.00 6630.00 m 3825.00 6750.00 l 3795.00 6630.00 l  3825.50 6630.50 l 3855.00 6630.00 l clp gs 0.00 setgray ef gr gs col-1 s gr
% Polyline
n 2925 2700 m 2925 3600 l  gs col-1 s gr 
n 2955.00 3480.00 m 2925.00 3600.00 l 2895.00 3480.00 l  2925.50 3480.50 l 2955.00 3480.00 l clp gs 0.00 setgray ef gr gs col-1 s gr
% Polyline
n 900 2160 m 900 2250 l  2250 2250 l  gs col-1 s gr 
n 2130.00 2220.00 m 2250.00 2250.00 l 2130.00 2280.00 l  2130.50 2250.50 l 2130.00 2220.00 l clp gs 0.00 setgray ef gr gs col-1 s gr
% Polyline
n 1980 5850 m 2250 5850 l  gs col-1 s gr 
n 2130.00 5820.00 m 2250.00 5850.00 l 2130.00 5880.00 l  2130.50 5850.50 l 2130.00 5820.00 l clp gs 0.00 setgray ef gr gs col-1 s gr
% Polyline
%
% Begin Imported EPS File: vector.eps
%
n gs
900 540 tr
1.653061 -1.894737 sc
0 -380 tr
-63 -210 tr
save
/showpage {} def
% EPS file follows:


% MathWorks dictionary
/MathWorks 150 dict begin

% definition operators
/bdef {bind def} bind def
/ldef {load def} bind def
/xdef {exch def} bdef
/xstore {exch store} bdef

% operator abbreviations
/c  /clip ldef
/cc /concat ldef
/cp /closepath ldef
/gr /grestore ldef
/gs /gsave ldef
/mt /moveto ldef
/np /newpath ldef
/cm /currentmatrix ldef
/sm /setmatrix ldef
/rc {rectclip} bdef
/rf {rectfill} bdef
/rm /rmoveto ldef
/rl /rlineto ldef
/s /show ldef
/sc {setcmykcolor} bdef
/sr /setrgbcolor ldef
/w /setlinewidth ldef
/j /setlinejoin ldef
/cap /setlinecap ldef

% page state control
/pgsv () def
/bpage {/pgsv save def} bdef
/epage {pgsv restore} bdef
/bplot /gsave ldef
/eplot {stroke grestore} bdef

% orientation switch
/portraitMode 	0 def
/landscapeMode 	1 def

% coordinate system mappings
/dpi2point 0 def

% font control
/FontSize 0 def
/FMS {
	/FontSize xstore		%save size off stack
	findfont
	[FontSize 0 0 FontSize neg 0 0]
	makefont
	setfont
	}bdef

/reencode {
exch dup where
{pop load} {pop StandardEncoding} ifelse
exch
dup 3 1 roll
findfont dup length dict begin
  { 1 index /FID ne {def}{pop pop} ifelse } forall
  /Encoding exch def
  currentdict
end
definefont pop
} bdef

/isroman {
findfont /CharStrings get
/Agrave known
} bdef

/FMSR {
3 1 roll 1 index
dup isroman
{reencode} {pop pop} ifelse
exch FMS
} bdef

/csm {
	1 dpi2point div -1 dpi2point div scale
	neg translate
	landscapeMode eq {90 rotate} if
	} bdef

% line types: solid, dotted, dashed, dotdash
/SO { [] 0 setdash } bdef
/DO { [.5 dpi2point mul 4 dpi2point mul] 0 setdash } bdef
/DA { [6 dpi2point mul] 0 setdash } bdef
/DD { [.5 dpi2point mul 4 dpi2point mul 6 dpi2point mul 4 dpi2point mul] 0 setdash } bdef

% macros for lines and objects
/L {
	lineto
	stroke
	} bdef
/MP {
	3 1 roll moveto
	1 sub {rlineto} repeat
	} bdef
/AP {
	{rlineto} repeat
	} bdef
/PP {
	closepath fill
	} bdef
/DP {
	closepath stroke
	} bdef
/MR {
	4 -2 roll moveto
	dup  0 exch rlineto
	exch 0 rlineto
	neg  0 exch rlineto
	closepath
	} bdef
/FR {
	MR stroke
	} bdef
/PR {
	MR fill
	} bdef
/L1i {
	{ currentfile picstr readhexstring pop } image
	} bdef

/tMatrix matrix def
/MakeOval {
	newpath
	tMatrix currentmatrix pop
	translate scale
	0 0 1 0 360 arc
	tMatrix setmatrix
	} bdef
/FO {
	MakeOval
	stroke
	} bdef
/PO {
	MakeOval
	fill
	} bdef

/PD {
	2 copy moveto lineto stroke
	} bdef


currentdict end def

MathWorks begin

0 cap

end

MathWorks begin
bpage

bplot

/dpi2point 12 def
portraitMode 0216 7344 csm

  541   259  5884  4555 MR c np
76 dict begin %Colortable dictionary
/c0 { 0 0 0 sr} bdef
/c1 { 1 1 1 sr} bdef
/c2 { 1 0 0 sr} bdef
/c3 { 0 1 0 sr} bdef
/c4 { 0 0 1 sr} bdef
/c5 { 1 1 0 sr} bdef
/c6 { 1 0 1 sr} bdef
/c7 { 0 1 1 sr} bdef
/Helvetica /ISOLatin1Encoding 144 FMSR

1 j
c1
   0    0 6914 5184 PR
6 w
DO
4 w
SO
6 w
c0
 898 4612 mt 6256 4612 L
 898  388 mt 6256  388 L
 898 4612 mt  898  388 L
6256 4612 mt 6256  388 L
 898 4612 mt  898 4612 L
6256 4612 mt 6256 4612 L
 898 4612 mt 6256 4612 L
 898 4612 mt  898  388 L
 898 4612 mt  898 4612 L
 898 4612 mt  898 4558 L
 898  388 mt  898  442 L
 858 4781 mt 
(0) s
1791 4612 mt 1791 4558 L
1791  388 mt 1791  442 L
1671 4781 mt 
(100) s
2684 4612 mt 2684 4558 L
2684  388 mt 2684  442 L
2564 4781 mt 
(200) s
3577 4612 mt 3577 4558 L
3577  388 mt 3577  442 L
3457 4781 mt 
(300) s
4470 4612 mt 4470 4558 L
4470  388 mt 4470  442 L
4350 4781 mt 
(400) s
5363 4612 mt 5363 4558 L
5363  388 mt 5363  442 L
5243 4781 mt 
(500) s
6256 4612 mt 6256 4558 L
6256  388 mt 6256  442 L
6136 4781 mt 
(600) s
 898 4612 mt  952 4612 L
6256 4612 mt 6202 4612 L
 783 4665 mt 
(0) s
 898 3908 mt  952 3908 L
6256 3908 mt 6202 3908 L
 623 3961 mt 
(500) s
 898 3204 mt  952 3204 L
6256 3204 mt 6202 3204 L
 543 3257 mt 
(1000) s
 898 2500 mt  952 2500 L
6256 2500 mt 6202 2500 L
 543 2553 mt 
(1500) s
 898 1796 mt  952 1796 L
6256 1796 mt 6202 1796 L
 543 1849 mt 
(2000) s
 898 1092 mt  952 1092 L
6256 1092 mt 6202 1092 L
 543 1145 mt 
(2500) s
 898  388 mt  952  388 L
6256  388 mt 6202  388 L
 543  441 mt 
(3000) s
 898 4612 mt 6256 4612 L
 898  388 mt 6256  388 L
 898 4612 mt  898  388 L
6256 4612 mt 6256  388 L
 898  388 mt  898  388 L
6256  388 mt 6256  388 L
gs 898 388 5359 4225 MR c np
9 -1 9 -1 9 -2 9 0 9 -1 9 -1 9 -1 8 -1 
9 -1 9 0 9 -1 9 0 9 0 9 -1 9 -1 9 0 
9 -1 9 0 9 0 9 -1 9 -1 8 0 9 0 9 -1 
9 0 9 0 9 -1 9 0 9 0 9 0 9 0 9 -1 
9 0 9 0 9 0 8 0 9 0 9 -1 9 0 9 0 
9 0 9 0 9 0 9 0 9 0 9 0 9 0 9 1 
9 0 8 0 9 0 9 0 9 0 9 0 9 0 9 0 
9 0 9 0 9 1 9 0 9 0 9 0 9 0 9 0 
8 1 9 0 9 0 9 0 9 1 9 0 9 0 9 0 
9 1 9 0 9 0 9 0 9 1 9 0 8 0 9 1 
9 0 9 0 9 0 9 1 9 0 9 1 9 0 9 0 
9 1 9 0 9 0 9 1 8 0 9 0 9 1 9 0 
9 0 9 1 9 0 5372 4423 100 MP stroke
9 0 9 0 9 0 9 1 9 0 9 0 9 0 9 1 
8 0 9 0 9 0 9 0 9 1 9 0 9 0 9 1 
9 0 9 0 9 0 9 1 9 0 9 0 8 1 9 0 
9 0 9 0 9 0 9 1 9 0 9 0 9 1 9 0 
9 0 9 0 9 1 9 0 8 0 9 0 9 1 9 0 
9 0 9 0 9 1 9 0 9 0 9 0 9 0 9 1 
9 0 9 0 8 0 9 0 9 0 9 1 9 0 9 0 
9 1 9 0 9 0 9 0 9 0 9 1 9 0 9 0 
9 1 8 0 9 0 9 0 9 1 9 0 9 1 9 0 
9 0 9 0 9 1 9 0 9 0 9 1 9 0 8 1 
9 0 9 1 9 1 9 0 9 1 9 0 9 0 9 1 
9 1 9 0 9 0 9 1 9 1 8 0 9 1 9 0 
9 1 9 0 9 1 4488 4392 100 MP stroke
9 0 9 1 9 1 9 1 9 1 9 0 9 1 9 0 
9 1 8 1 9 1 9 0 9 1 9 1 9 1 9 1 
9 1 9 0 9 1 9 0 9 0 9 0 9 1 8 0 
9 0 9 0 9 0 9 1 9 2 9 2 9 1 9 2 
9 2 9 2 9 1 9 3 9 4 8 5 9 3 9 4 
9 2 9 3 9 2 9 4 9 5 9 6 9 7 9 7 
9 6 9 6 9 5 8 4 9 2 9 0 9 0 9 2 
9 5 9 7 9 8 9 9 9 8 9 6 9 4 9 5 
9 4 9 5 8 4 9 5 9 3 9 5 9 7 9 10 
9 12 9 10 9 8 9 7 9 8 9 8 9 8 9 9 
8 8 9 10 9 7 9 6 9 4 9 3 9 2 9 1 
9 0 9 1 9 -3 9 -4 9 -5 9 -4 8 2 9 6 
9 11 9 13 9 16 3604 4045 100 MP stroke
9 17 9 17 9 17 9 17 9 15 9 14 9 15 9 15 
9 17 9 18 8 20 9 23 9 26 9 28 9 31 9 38 
9 43 9 47 9 48 9 52 9 57 9 59 9 58 9 56 
8 56 9 52 9 47 9 39 9 34 9 31 9 25 9 17 
9 12 9 12 9 12 9 15 9 15 9 9 8 3 9 1 
9 4 9 8 9 7 9 5 9 5 9 2 9 -7 9 -16 
9 -19 9 -13 9 4 9 25 8 39 9 46 9 49 9 53 
9 58 9 65 9 72 9 75 9 83 9 94 9 100 9 104 
9 103 9 99 9 91 8 86 9 90 9 93 9 90 9 81 
9 68 9 57 9 49 9 44 9 47 9 49 9 35 9 20 
9 -5 8 -39 9 -58 9 -63 9 -64 9 -60 9 -53 9 -46 
9 -47 9 -57 9 -69 9 -74 9 -76 9 -77 9 -78 8 -77 
9 -73 9 -65 9 -55 2720 2108 100 MP stroke
9 -46 9 -42 9 -44 9 -51 9 -60 9 -62 9 -53 9 -39 
9 -28 9 -27 9 -40 8 -52 9 -66 9 -80 9 -88 9 -88 
9 -89 9 -84 9 -77 9 -65 9 -61 9 -58 9 -55 9 -55 
9 -56 8 -53 9 -48 9 -47 9 -38 9 -27 9 -20 9 -12 
9 -9 9 -12 9 -21 9 -25 9 -27 9 -29 9 -38 8 -50 
9 -57 9 -53 9 -49 9 -47 9 -44 9 -39 9 -33 9 -25 
9 -17 9 -14 9 -11 9 -7 9 -6 8 -3 9 2 9 4 
9 5 9 5 9 3 9 5 9 6 9 6 9 2 9 0 
9 -1 9 0 9 1 9 0 8 1 9 1 9 3 9 2 
9 2 9 3 9 1 9 2 9 0 9 1 9 1 9 1 
9 0 9 0 8 1 9 0 9 0 9 1 9 1 9 0 
9 1 9 0 9 1 9 1 9 1 9 0 9 1 9 1 
8 0 9 0 9 1 1836 4369 100 MP stroke
9 0 9 1 9 0 9 1 9 0 9 1 9 0 9 1 
9 0 9 1 9 0 9 1 8 0 9 1 9 0 9 1 
9 0 9 1 9 0 9 1 9 0 9 0 9 0 9 0 
9 0 9 0 8 -1 9 0 9 0 9 -1 9 0 9 -1 
9 -1 9 -1 9 -1 9 -1 9 -2 9 -2 9 -2 9 -2 
8 -2 9 -2 9 -2 9 -2 9 -2 9 -2 9 -1 9 -2 
9 -1 9 -2 9 -3 9 -3 9 -4 9 -4 8 -3 9 -4 
9 -4 9 -3 9 -4 9 -3 9 -2 9 -3 9 -3 9 -2 
9 -3 9 -4 9 -3 9 -3 9 -1 8 -1 9 1 9 2 
9 3 9 4 9 5 9 5 9 5 9 5 9 3 9 3 
9 2 9 2 9 1 8 1 9 0 9 1 9 2 9 2 
9 2 9 3 9 2 9 3 9 4 9 3 9 4 9 3 
9 3 8 3 9 3 952 4372 100 MP stroke
9 3 9 3 9 3 9 3 9 3 907 4357 6 MP stroke
0 -1408 4336 4612 2 MP stroke
0 -1408 1996 4612 2 MP stroke

gr 
1461 2975 mt 
(QRS-Onset) s
3800 2975 mt 
(QRS-Offset) s

end

eplot

epage
end

showpage

restore gr
%
% End Imported PIC File: vector.eps
%
% Polyline
%
% Begin Imported EPS File: butterh.eps
%
n gs
2340 540 tr
2.417355 -1.894737 sc
0 -380 tr
-69 -210 tr
save
/showpage {} def
% EPS file follows:


% MathWorks dictionary
/MathWorks 150 dict begin

% definition operators
/bdef {bind def} bind def
/ldef {load def} bind def
/xdef {exch def} bdef
/xstore {exch store} bdef

% operator abbreviations
/c  /clip ldef
/cc /concat ldef
/cp /closepath ldef
/gr /grestore ldef
/gs /gsave ldef
/mt /moveto ldef
/np /newpath ldef
/cm /currentmatrix ldef
/sm /setmatrix ldef
/rc {rectclip} bdef
/rf {rectfill} bdef
/rm /rmoveto ldef
/rl /rlineto ldef
/s /show ldef
/sc {setcmykcolor} bdef
/sr /setrgbcolor ldef
/w /setlinewidth ldef
/j /setlinejoin ldef
/cap /setlinecap ldef

% page state control
/pgsv () def
/bpage {/pgsv save def} bdef
/epage {pgsv restore} bdef
/bplot /gsave ldef
/eplot {stroke grestore} bdef

% orientation switch
/portraitMode 	0 def
/landscapeMode 	1 def

% coordinate system mappings
/dpi2point 0 def

% font control
/FontSize 0 def
/FMS {
	/FontSize xstore		%save size off stack
	findfont
	[FontSize 0 0 FontSize neg 0 0]
	makefont
	setfont
	}bdef

/reencode {
exch dup where
{pop load} {pop StandardEncoding} ifelse
exch
dup 3 1 roll
findfont dup length dict begin
  { 1 index /FID ne {def}{pop pop} ifelse } forall
  /Encoding exch def
  currentdict
end
definefont pop
} bdef

/isroman {
findfont /CharStrings get
/Agrave known
} bdef

/FMSR {
3 1 roll 1 index
dup isroman
{reencode} {pop pop} ifelse
exch FMS
} bdef

/csm {
	1 dpi2point div -1 dpi2point div scale
	neg translate
	landscapeMode eq {90 rotate} if
	} bdef

% line types: solid, dotted, dashed, dotdash
/SO { [] 0 setdash } bdef
/DO { [.5 dpi2point mul 4 dpi2point mul] 0 setdash } bdef
/DA { [6 dpi2point mul] 0 setdash } bdef
/DD { [.5 dpi2point mul 4 dpi2point mul 6 dpi2point mul 4 dpi2point mul] 0 setdash } bdef

% macros for lines and objects
/L {
	lineto
	stroke
	} bdef
/MP {
	3 1 roll moveto
	1 sub {rlineto} repeat
	} bdef
/AP {
	{rlineto} repeat
	} bdef
/PP {
	closepath fill
	} bdef
/DP {
	closepath stroke
	} bdef
/MR {
	4 -2 roll moveto
	dup  0 exch rlineto
	exch 0 rlineto
	neg  0 exch rlineto
	closepath
	} bdef
/FR {
	MR stroke
	} bdef
/PR {
	MR fill
	} bdef
/L1i {
	{ currentfile picstr readhexstring pop } image
	} bdef

/tMatrix matrix def
/MakeOval {
	newpath
	tMatrix currentmatrix pop
	translate scale
	0 0 1 0 360 arc
	tMatrix setmatrix
	} bdef
/FO {
	MakeOval
	stroke
	} bdef
/PO {
	MakeOval
	fill
	} bdef

/PD {
	2 copy moveto lineto stroke
	} bdef


currentdict end def

MathWorks begin

0 cap

end

MathWorks begin
bpage

bplot

/dpi2point 12 def
portraitMode 0216 7344 csm

  621   259  5804  4555 MR c np
76 dict begin %Colortable dictionary
/c0 { 0 0 0 sr} bdef
/c1 { 1 1 1 sr} bdef
/c2 { 1 0 0 sr} bdef
/c3 { 0 1 0 sr} bdef
/c4 { 0 0 1 sr} bdef
/c5 { 1 1 0 sr} bdef
/c6 { 1 0 1 sr} bdef
/c7 { 0 1 1 sr} bdef
/Helvetica /ISOLatin1Encoding 144 FMSR

1 j
c1
   0    0 6914 5184 PR
6 w
DO
4 w
SO
6 w
c0
 898 4612 mt 6256 4612 L
 898  388 mt 6256  388 L
 898 4612 mt  898  388 L
6256 4612 mt 6256  388 L
 898 4612 mt  898 4612 L
6256 4612 mt 6256 4612 L
 898 4612 mt 6256 4612 L
 898 4612 mt  898  388 L
 898 4612 mt  898 4612 L
 898 4612 mt  898 4558 L
 898  388 mt  898  442 L
 858 4781 mt 
(0) s
1791 4612 mt 1791 4558 L
1791  388 mt 1791  442 L
1671 4781 mt 
(100) s
2684 4612 mt 2684 4558 L
2684  388 mt 2684  442 L
2564 4781 mt 
(200) s
3577 4612 mt 3577 4558 L
3577  388 mt 3577  442 L
3457 4781 mt 
(300) s
4470 4612 mt 4470 4558 L
4470  388 mt 4470  442 L
4350 4781 mt 
(400) s
5363 4612 mt 5363 4558 L
5363  388 mt 5363  442 L
5243 4781 mt 
(500) s
6256 4612 mt 6256 4558 L
6256  388 mt 6256  442 L
6136 4781 mt 
(600) s
 898 4612 mt  952 4612 L
6256 4612 mt 6202 4612 L
 783 4665 mt 
(0) s
 898 3908 mt  952 3908 L
6256 3908 mt 6202 3908 L
 703 3961 mt 
(20) s
 898 3204 mt  952 3204 L
6256 3204 mt 6202 3204 L
 703 3257 mt 
(40) s
 898 2500 mt  952 2500 L
6256 2500 mt 6202 2500 L
 703 2553 mt 
(60) s
 898 1796 mt  952 1796 L
6256 1796 mt 6202 1796 L
 703 1849 mt 
(80) s
 898 1092 mt  952 1092 L
6256 1092 mt 6202 1092 L
 623 1145 mt 
(100) s
 898  388 mt  952  388 L
6256  388 mt 6202  388 L
 623  441 mt 
(120) s
 898 4612 mt 6256 4612 L
 898  388 mt 6256  388 L
 898 4612 mt  898  388 L
6256 4612 mt 6256  388 L
 898  388 mt  898  388 L
6256  388 mt 6256  388 L
gs 898 388 5359 4225 MR c np
9 63 9 35 9 10 9 -8 9 -20 9 -22 9 -24 8 -16 
9 7 9 14 9 5 9 4 9 0 9 0 9 -4 9 -4 
9 -11 9 -14 9 -8 9 1 9 8 8 6 9 4 9 -3 
9 -9 9 -6 9 3 9 -4 9 1 9 2 9 0 9 0 
9 -4 9 -5 9 2 8 0 9 5 9 2 9 -2 9 -2 
9 -2 9 -1 9 -4 9 6 9 2 9 -2 9 0 9 1 
9 -2 8 -4 9 6 9 1 9 -4 9 0 9 -3 9 -1 
9 0 9 4 9 0 9 -3 9 -1 9 1 9 4 9 3 
8 1 9 -5 9 -5 9 3 9 5 9 1 9 -3 9 1 
9 -2 9 1 9 0 9 3 9 2 9 -6 8 0 9 -2 
9 0 9 -1 9 2 9 3 9 2 9 -3 9 -2 9 -3 
9 3 9 1 9 -3 9 3 8 6 9 0 9 -7 9 -1 
9 3 9 3 9 -3 5372 4605 100 MP stroke
9 -2 9 4 9 -1 9 -1 9 1 9 4 9 -2 9 -5 
8 -1 9 3 9 -2 9 -1 9 1 9 1 9 -2 9 3 
9 2 9 1 9 -1 9 -2 9 0 9 5 8 1 9 2 
9 -1 9 -1 9 -3 9 -1 9 -2 9 -1 9 2 9 -1 
9 -1 9 1 9 0 9 -2 8 -1 9 0 9 1 9 -2 
9 3 9 3 9 -6 9 0 9 4 9 2 9 -1 9 -1 
9 0 9 -5 8 6 9 6 9 -2 9 -4 9 0 9 -3 
9 6 9 2 9 -4 9 -2 9 1 9 1 9 -1 9 1 
9 -1 8 0 9 -4 9 4 9 6 9 -3 9 -4 9 -1 
9 -3 9 1 9 1 9 0 9 2 9 -4 9 -1 8 1 
9 2 9 2 9 -1 9 0 9 -1 9 2 9 0 9 0 
9 1 9 -1 9 4 9 -3 9 -4 8 2 9 2 9 0 
9 -2 9 1 9 3 4488 4602 100 MP stroke
9 0 9 -2 9 -6 9 3 9 2 9 -1 9 -2 9 1 
9 1 8 1 9 1 9 1 9 -4 9 -3 9 3 9 0 
9 0 9 -2 9 1 9 3 9 0 9 -2 9 1 8 -4 
9 3 9 0 9 0 9 1 9 -1 9 0 9 4 9 -2 
9 1 9 3 9 0 9 -3 9 5 8 2 9 -2 9 -6 
9 -3 9 0 9 2 9 1 9 2 9 0 9 -3 9 1 
9 2 9 -1 9 -1 8 -1 9 1 9 5 9 0 9 -6 
9 0 9 -2 9 0 9 -1 9 0 9 -2 9 6 9 0 
9 -1 9 0 8 4 9 -1 9 -1 9 4 9 -5 9 -3 
9 6 9 0 9 -5 9 1 9 -1 9 -1 9 0 9 1 
8 -1 9 1 9 1 9 0 9 0 9 6 9 -2 9 -2 
9 -1 9 -1 9 4 9 4 9 5 9 1 8 1 9 -3 
9 -8 9 -6 9 18 3604 4590 100 MP stroke
9 27 9 34 9 22 9 1 9 -17 9 -21 9 -9 9 6 
9 22 9 23 8 1 9 -25 9 -40 9 -23 9 57 9 61 
9 55 9 37 9 19 9 11 9 5 9 -22 9 -54 9 -74 
8 -55 9 80 9 137 9 138 9 108 9 65 9 15 9 -41 
9 -114 9 -168 9 -81 9 98 9 131 9 145 8 160 9 91 
9 -70 9 -249 9 -312 9 37 9 77 9 -118 9 1 9 336 
9 286 9 142 9 -37 9 -205 8 -309 9 -224 9 301 9 370 
9 270 9 73 9 -185 9 -252 9 249 9 549 9 299 9 -216 
9 -656 9 51 9 939 8 737 9 319 9 -90 9 -450 9 -657 
9 -621 9 -331 9 -58 9 102 9 248 9 245 9 126 9 29 
9 41 8 318 9 557 9 408 9 64 9 -257 9 -453 9 -564 
9 -627 9 -469 9 495 9 945 9 965 9 777 9 419 8 1 
9 -330 9 -527 9 -622 2720 1898 100 MP stroke
9 -621 9 -591 9 -558 9 -325 9 315 9 -94 9 -127 9 -53 
9 93 9 82 9 -20 8 -134 9 -171 9 32 9 335 9 379 
9 251 9 68 9 -37 9 -61 9 -125 9 -241 9 -355 9 -392 
9 -139 8 295 9 210 9 -13 9 -162 9 -154 9 27 9 92 
9 -78 9 -233 9 135 9 249 9 101 9 -11 9 -70 8 -52 
9 -10 9 -4 9 -61 9 -123 9 -162 9 26 9 235 9 199 
9 81 9 -76 9 -183 9 -178 9 -105 8 -41 9 -45 9 -66 
9 -17 9 63 9 47 9 15 9 -10 9 -26 9 -26 9 -11 
9 0 9 -6 9 -18 9 -19 8 -17 9 -11 9 5 9 4 
9 0 9 -5 9 -4 9 2 9 -4 9 -1 9 4 9 -4 
9 -6 9 2 8 4 9 3 9 -1 9 -4 9 0 9 1 
9 2 9 -2 9 0 9 -5 9 8 9 5 9 -4 9 -5 
8 -1 9 1 9 2 1836 4603 100 MP stroke
9 3 9 3 9 3 9 2 9 -3 9 -4 9 -2 9 4 
9 0 9 3 9 -4 9 -5 8 -6 9 5 9 7 9 -4 
9 -6 9 2 9 2 9 2 9 -3 9 1 9 4 9 1 
9 -1 9 -3 8 -2 9 0 9 0 9 -3 9 -1 9 0 
9 -1 9 1 9 -2 9 2 9 2 9 0 9 2 9 6 
8 6 9 5 9 -3 9 -1 9 3 9 7 9 1 9 4 
9 5 9 6 9 4 9 -3 9 -5 9 -9 8 -10 9 7 
9 20 9 14 9 10 9 3 9 -3 9 -8 9 -12 9 -15 
9 -10 9 -7 9 3 9 9 9 8 8 10 9 7 9 4 
9 7 9 4 9 3 9 6 9 1 9 -5 9 -11 9 -15 
9 -15 9 -2 9 21 8 30 9 32 9 25 9 7 9 -9 
9 -13 9 -14 9 -5 9 9 9 10 9 -1 9 -6 9 -9 
9 -13 8 -11 9 4 952 4518 100 MP stroke
9 19 9 15 9 5 9 -33 9 -98 907 4610 6 MP stroke
0 -2112 3693 4612 2 MP stroke
0 -2112 2086 4612 2 MP stroke

gr 
1550 2377 mt 
(QRS-Onset) s
3157 2377 mt 
(QRS-Offset) s

end

eplot

epage
end

showpage

restore gr
%
% End Imported PIC File: butterh.eps
%
% Polyline
%
% Begin Imported EPS File: ffnet.eps
%
n gs
2340 1890 tr
1.486658 -1.333333 sc
787 0 tr
270 rot
1 -1 sc
-27 -27 tr
save
/showpage {} def
% EPS file follows:

%Fixed stuff - DON'T CHANGE THIS!
/inch { 72 mul } bind def
/cm { 28.34646 mul } bind def
/mm { 2.834646 mul } bind def
/lw 72 300 div def
/min { 2 copy gt { exch } if pop } bind def
/max { 2 copy lt { exch } if pop } bind def
/sgn {dup 0 eq {pop 0}{0 gt {1}{-1} ifelse} ifelse} bind def

%General Settings

/tt false def
/sb false def
/cab true def
/fo /Helvetica def
/rs 37 def
/ph 277.00 mm def
/pw 190.00 mm def
/bh 10.00 mm def
/bv 10.00 mm def
/blw 0.50 mm def
/LandscapeMode false def

/cabb true def
/bbllx 28.3 def
/bblly 28.3 def
/bburx 566.9 def
/bbury 813.5 def

/ulx 2 def
/uly 2 def
/lrx 8 def
/lry 9 def

/ter 0.00 def
/teg 0.00 def
/teb 0.00 def
/bgr 1.00 def
/bgg 1.00 def
/bgb 1.00 def

/ms 16 def
/sc false def
/ufs 6 def
/sht true def
/shb false def
/ulw 0.50 def
/di false def
/sw false def
/wfs 4 def
/iw 238.00 def
/ih 282.00 def
/isx 2.26 def
/isy 2.78 def

/ep { %def
	/eps ms 2 div def
	exch 3 index sub
	/dx exch def
	1 index sub
	/dy exch def
	dx abs dy abs ge { %ifelse
		/dy dy eps dx abs div mul def
		/dx dx sgn eps mul def
	} { %else
		/dx dx eps dy abs div mul def
		/dy dy sgn eps mul def
	} ifelse

	dy add exch dx add exch
} bind def
		
/ah { %def
	gsave
	moveto
	currentpoint
	4 2 roll exch 4 -1 roll exch
	sub 3 1 roll sub
	exch atan rotate 0.6 add dup scale
	-4 0 rmoveto
	-1 2 rlineto
	7 -2 rlineto
	-7 -2 rlineto
	closepath fill
	grestore
	newpath
} bind def


/boxpath {moveto dup 0 rlineto dup neg 0 exch rlineto neg 0 rlineto closepath} bind def
/circlepath {s 2 div sub exch s 2 div add exch 3 2 roll 2 div 0 360 arc} bind def

/CS1 {moveto dup stringwidth pop 2 div neg ms 2 div add 0 rmoveto show} bind def
/CS2 {3 copy moveto dup stringwidth pop 2 div neg ms 2 div add 1 sub -1
rmoveto	stringwidth pop fs exch 1 add dup 0 rlineto exch 0 exch rlineto	neg 0 rlineto
closepath 1 setgray fill
0 setgray moveto dup stringwidth pop 2 div neg ms 2 div add 0 rmoveto show} bind def


/CCS1 {moveto dup stringwidth pop 2 div neg 0 rmoveto show} bind def
/CCS2 {3 copy moveto dup stringwidth pop 2 div neg 0 rmoveto 
stringwidth pop fs exch 1 add dup 0 rlineto exch 0 exch rlineto	neg 0 rlineto
closepath 1 setgray fill
0 setgray moveto dup stringwidth pop 2 div neg 0 rmoveto show} bind def

/ValStr 20 string def

/du {
 gsave
  /s exch dup 0 eq not {ulw sub} if def 
  /y exch uly sub rs mul fs 2 div add neg def 
  /x exch ulx sub rs mul def
  newpath s 0 eq {pop pop pop} { 
       s x ms s sub 2 div add y ms s sub 2 div sub 
       up gsave setrgbcolor fill grestore
       0 setgray ulw setlinewidth stroke } ifelse
  ter teb teg setrgbcolor
  shb {x y ms sub fs sub CS}{pop} ifelse
  sht {x y 1.5 add CS}{pop} ifelse
 grestore
} bind def

/co {
 gsave
  setrgbcolor
  /ty exch uly sub rs mul neg ms 2 div sub def
  /tx exch ulx sub rs mul ms 2 div add def
  /sy exch uly sub rs mul neg ms 2 div sub def
  /sx exch ulx sub rs mul ms 2 div add def
  sx sy tx ty ep tx ty sx sy ep
  /ty exch def /tx exch def /sy exch def /sx exch def sx sy moveto tx ty lineto
  lw setlinewidth stroke
  di {lw sx sy tx ty ah} if
  sw {
	ter teb teg setrgbcolor
	tx sx add 2 div	ty sy add 2 div
	ty sy sub 0 eq {fs 1 add 2 div tx sx sub sgn neg mul add}{fs 1 add 2 div ty sy sub sgn neg mul add} ifelse
	fs 1 add 2 div sub CCS
  } {pop} ifelse
 grestore
} bind def



%get font 
 /fs ufs def fo findfont fs scalefont setfont

  sc {/up {circlepath} bind def}{/up {boxpath} bind def} ifelse
  tt {/CS {CS1} bind def}{/CS {CS2} bind def} ifelse
  tt {/CCS {CCS1} bind def}{/CCS {CCS2} bind def} ifelse

%consider border
 LandscapeMode {90 rotate bh bv neg translate}{bh ph bv add translate} ifelse

%clippath
%  newpath
%  sb {gsave
%	blw 2 div neg blw 2 div moveto 0 ph blw add neg rlineto pw blw
%        add 0 rlineto 0 ph blw add rlineto closepath
%        0 setgray blw setlinewidth stroke 
%      grestore} if
%  0 0 moveto 0 ph neg rlineto pw 0 rlineto 0 ph rlineto closepath
%  cab {clip} if
%  gsave clippath bgr bgg bgb setrgbcolor fill grestore



%final adjustment to user coordinate space
  0 pw iw isx mul sub max 2 div fs neg 0 ph ih isy mul sub max 2 div sub
  translate isx isy scale


%get font
 /fs wfs def
 fo findfont fs scalefont setfont

  (0.000)  2 9  5 2  0.000 0.000 0.000  co
  (0.000)  2 8  5 2  0.000 0.000 0.000  co
  (0.000)  2 7  5 2  0.000 0.000 0.000  co
  (0.000)  2 6  5 2  0.000 0.000 0.000  co
  (0.000)  2 5  5 2  0.000 0.000 0.000  co
  (0.000)  2 4  5 2  0.000 0.000 0.000  co
  (0.000)  2 3  5 2  0.000 0.000 0.000  co
  (0.000)  2 2  5 2  0.000 0.000 0.000  co
  (0.000)  2 9  5 3  0.000 0.000 0.000  co
  (0.000)  2 8  5 3  0.000 0.000 0.000  co
  (0.000)  2 7  5 3  0.000 0.000 0.000  co
  (0.000)  2 6  5 3  0.000 0.000 0.000  co
  (0.000)  2 5  5 3  0.000 0.000 0.000  co
  (0.000)  2 4  5 3  0.000 0.000 0.000  co
  (0.000)  2 3  5 3  0.000 0.000 0.000  co
  (0.000)  2 2  5 3  0.000 0.000 0.000  co
  (0.000)  2 9  5 4  0.000 0.000 0.000  co
  (0.000)  2 8  5 4  0.000 0.000 0.000  co
  (0.000)  2 7  5 4  0.000 0.000 0.000  co
  (0.000)  2 6  5 4  0.000 0.000 0.000  co
  (0.000)  2 5  5 4  0.000 0.000 0.000  co
  (0.000)  2 4  5 4  0.000 0.000 0.000  co
  (0.000)  2 3  5 4  0.000 0.000 0.000  co
  (0.000)  2 2  5 4  0.000 0.000 0.000  co
  (0.000)  2 9  5 5  0.000 0.000 0.000  co
  (0.000)  2 8  5 5  0.000 0.000 0.000  co
  (0.000)  2 7  5 5  0.000 0.000 0.000  co
  (0.000)  2 6  5 5  0.000 0.000 0.000  co
  (0.000)  2 5  5 5  0.000 0.000 0.000  co
  (0.000)  2 4  5 5  0.000 0.000 0.000  co
  (0.000)  2 3  5 5  0.000 0.000 0.000  co
  (0.000)  2 2  5 5  0.000 0.000 0.000  co
  (0.000)  2 9  5 6  0.000 0.000 0.000  co
  (0.000)  2 8  5 6  0.000 0.000 0.000  co
  (0.000)  2 7  5 6  0.000 0.000 0.000  co
  (0.000)  2 6  5 6  0.000 0.000 0.000  co
  (0.000)  2 5  5 6  0.000 0.000 0.000  co
  (0.000)  2 4  5 6  0.000 0.000 0.000  co
  (0.000)  2 3  5 6  0.000 0.000 0.000  co
  (0.000)  2 2  5 6  0.000 0.000 0.000  co
  (0.000)  2 9  5 7  0.000 0.000 0.000  co
  (0.000)  2 8  5 7  0.000 0.000 0.000  co
  (0.000)  2 7  5 7  0.000 0.000 0.000  co
  (0.000)  2 6  5 7  0.000 0.000 0.000  co
  (0.000)  2 5  5 7  0.000 0.000 0.000  co
  (0.000)  2 4  5 7  0.000 0.000 0.000  co
  (0.000)  2 3  5 7  0.000 0.000 0.000  co
  (0.000)  2 2  5 7  0.000 0.000 0.000  co
  (0.000)  5 7  8 2  0.000 0.000 0.000  co
  (0.000)  5 6  8 2  0.000 0.000 0.000  co
  (0.000)  5 5  8 2  0.000 0.000 0.000  co
  (0.000)  5 4  8 2  0.000 0.000 0.000  co
  (0.000)  5 3  8 2  0.000 0.000 0.000  co
  (0.000)  5 2  8 2  0.000 0.000 0.000  co
  (0.000)  5 7  8 3  0.000 0.000 0.000  co
  (0.000)  5 6  8 3  0.000 0.000 0.000  co
  (0.000)  5 5  8 3  0.000 0.000 0.000  co
  (0.000)  5 4  8 3  0.000 0.000 0.000  co
  (0.000)  5 3  8 3  0.000 0.000 0.000  co
  (0.000)  5 2  8 3  0.000 0.000 0.000  co
  (0.000)  5 7  8 4  0.000 0.000 0.000  co
  (0.000)  5 6  8 4  0.000 0.000 0.000  co
  (0.000)  5 5  8 4  0.000 0.000 0.000  co
  (0.000)  5 4  8 4  0.000 0.000 0.000  co
  (0.000)  5 3  8 4  0.000 0.000 0.000  co
  (0.000)  5 2  8 4  0.000 0.000 0.000  co
  (0.000)  5 7  8 5  0.000 0.000 0.000  co
  (0.000)  5 6  8 5  0.000 0.000 0.000  co
  (0.000)  5 5  8 5  0.000 0.000 0.000  co
  (0.000)  5 4  8 5  0.000 0.000 0.000  co
  (0.000)  5 3  8 5  0.000 0.000 0.000  co
  (0.000)  5 2  8 5  0.000 0.000 0.000  co

%get font
 /fs ufs def
 fo findfont fs scalefont setfont

  (1) (0.000)  0.500 0.500 0.500  2 2  16  du
  (2) (0.000)  0.500 0.500 0.500  2 3  16  du
  (3) (0.000)  0.500 0.500 0.500  2 4  16  du
  (4) (0.000)  0.500 0.500 0.500  2 5  16  du
  (5) (0.000)  0.500 0.500 0.500  2 6  16  du
  (6) (0.000)  0.500 0.500 0.500  2 7  16  du
  (7) (0.000)  0.500 0.500 0.500  2 8  16  du
  (8) (0.000)  0.500 0.500 0.500  2 9  16  du
  (9) (0.000)  0.500 0.500 0.500  5 2  16  du
  (10) (0.000)  0.500 0.500 0.500  5 3  16  du
  (11) (0.000)  0.500 0.500 0.500  5 4  16  du
  (12) (0.000)  0.500 0.500 0.500  5 5  16  du
  (13) (0.000)  0.500 0.500 0.500  5 6  16  du
  (14) (0.000)  0.500 0.500 0.500  5 7  16  du
  (15) (0.000)  0.500 0.500 0.500  8 2  16  du
  (16) (0.000)  0.500 0.500 0.500  8 3  16  du
  (17) (0.000)  0.500 0.500 0.500  8 4  16  du
  (18) (0.000)  0.500 0.500 0.500  8 5  16  du

 showpage


restore gr
%
% End Imported PIC File: ffnet.eps
%
% Polyline
%
% Begin Imported EPS File: ffnet.eps
%
n gs
3240 5490 tr
1.486658 -1.333333 sc
787 0 tr
270 rot
1 -1 sc
-27 -27 tr
save
/showpage {} def
% EPS file follows:

%Fixed stuff - DON'T CHANGE THIS!
/inch { 72 mul } bind def
/cm { 28.34646 mul } bind def
/mm { 2.834646 mul } bind def
/lw 72 300 div def
/min { 2 copy gt { exch } if pop } bind def
/max { 2 copy lt { exch } if pop } bind def
/sgn {dup 0 eq {pop 0}{0 gt {1}{-1} ifelse} ifelse} bind def

%General Settings

/tt false def
/sb false def
/cab true def
/fo /Helvetica def
/rs 37 def
/ph 277.00 mm def
/pw 190.00 mm def
/bh 10.00 mm def
/bv 10.00 mm def
/blw 0.50 mm def
/LandscapeMode false def

/cabb true def
/bbllx 28.3 def
/bblly 28.3 def
/bburx 566.9 def
/bbury 813.5 def

/ulx 2 def
/uly 2 def
/lrx 8 def
/lry 9 def

/ter 0.00 def
/teg 0.00 def
/teb 0.00 def
/bgr 1.00 def
/bgg 1.00 def
/bgb 1.00 def

/ms 16 def
/sc false def
/ufs 6 def
/sht true def
/shb false def
/ulw 0.50 def
/di false def
/sw false def
/wfs 4 def
/iw 238.00 def
/ih 282.00 def
/isx 2.26 def
/isy 2.78 def

/ep { %def
	/eps ms 2 div def
	exch 3 index sub
	/dx exch def
	1 index sub
	/dy exch def
	dx abs dy abs ge { %ifelse
		/dy dy eps dx abs div mul def
		/dx dx sgn eps mul def
	} { %else
		/dx dx eps dy abs div mul def
		/dy dy sgn eps mul def
	} ifelse

	dy add exch dx add exch
} bind def
		
/ah { %def
	gsave
	moveto
	currentpoint
	4 2 roll exch 4 -1 roll exch
	sub 3 1 roll sub
	exch atan rotate 0.6 add dup scale
	-4 0 rmoveto
	-1 2 rlineto
	7 -2 rlineto
	-7 -2 rlineto
	closepath fill
	grestore
	newpath
} bind def


/boxpath {moveto dup 0 rlineto dup neg 0 exch rlineto neg 0 rlineto closepath} bind def
/circlepath {s 2 div sub exch s 2 div add exch 3 2 roll 2 div 0 360 arc} bind def

/CS1 {moveto dup stringwidth pop 2 div neg ms 2 div add 0 rmoveto show} bind def
/CS2 {3 copy moveto dup stringwidth pop 2 div neg ms 2 div add 1 sub -1
rmoveto	stringwidth pop fs exch 1 add dup 0 rlineto exch 0 exch rlineto	neg 0 rlineto
closepath 1 setgray fill
0 setgray moveto dup stringwidth pop 2 div neg ms 2 div add 0 rmoveto show} bind def


/CCS1 {moveto dup stringwidth pop 2 div neg 0 rmoveto show} bind def
/CCS2 {3 copy moveto dup stringwidth pop 2 div neg 0 rmoveto 
stringwidth pop fs exch 1 add dup 0 rlineto exch 0 exch rlineto	neg 0 rlineto
closepath 1 setgray fill
0 setgray moveto dup stringwidth pop 2 div neg 0 rmoveto show} bind def

/ValStr 20 string def

/du {
 gsave
  /s exch dup 0 eq not {ulw sub} if def 
  /y exch uly sub rs mul fs 2 div add neg def 
  /x exch ulx sub rs mul def
  newpath s 0 eq {pop pop pop} { 
       s x ms s sub 2 div add y ms s sub 2 div sub 
       up gsave setrgbcolor fill grestore
       0 setgray ulw setlinewidth stroke } ifelse
  ter teb teg setrgbcolor
  shb {x y ms sub fs sub CS}{pop} ifelse
  sht {x y 1.5 add CS}{pop} ifelse
 grestore
} bind def

/co {
 gsave
  setrgbcolor
  /ty exch uly sub rs mul neg ms 2 div sub def
  /tx exch ulx sub rs mul ms 2 div add def
  /sy exch uly sub rs mul neg ms 2 div sub def
  /sx exch ulx sub rs mul ms 2 div add def
  sx sy tx ty ep tx ty sx sy ep
  /ty exch def /tx exch def /sy exch def /sx exch def sx sy moveto tx ty lineto
  lw setlinewidth stroke
  di {lw sx sy tx ty ah} if
  sw {
	ter teb teg setrgbcolor
	tx sx add 2 div	ty sy add 2 div
	ty sy sub 0 eq {fs 1 add 2 div tx sx sub sgn neg mul add}{fs 1 add 2 div ty sy sub sgn neg mul add} ifelse
	fs 1 add 2 div sub CCS
  } {pop} ifelse
 grestore
} bind def



%get font 
 /fs ufs def fo findfont fs scalefont setfont

  sc {/up {circlepath} bind def}{/up {boxpath} bind def} ifelse
  tt {/CS {CS1} bind def}{/CS {CS2} bind def} ifelse
  tt {/CCS {CCS1} bind def}{/CCS {CCS2} bind def} ifelse

%consider border
 LandscapeMode {90 rotate bh bv neg translate}{bh ph bv add translate} ifelse

%clippath
%  newpath
%  sb {gsave
%	blw 2 div neg blw 2 div moveto 0 ph blw add neg rlineto pw blw
%        add 0 rlineto 0 ph blw add rlineto closepath
%        0 setgray blw setlinewidth stroke 
%      grestore} if
%  0 0 moveto 0 ph neg rlineto pw 0 rlineto 0 ph rlineto closepath
%  cab {clip} if
%  gsave clippath bgr bgg bgb setrgbcolor fill grestore



%final adjustment to user coordinate space
  0 pw iw isx mul sub max 2 div fs neg 0 ph ih isy mul sub max 2 div sub
  translate isx isy scale


%get font
 /fs wfs def
 fo findfont fs scalefont setfont

  (0.000)  2 9  5 2  0.000 0.000 0.000  co
  (0.000)  2 8  5 2  0.000 0.000 0.000  co
  (0.000)  2 7  5 2  0.000 0.000 0.000  co
  (0.000)  2 6  5 2  0.000 0.000 0.000  co
  (0.000)  2 5  5 2  0.000 0.000 0.000  co
  (0.000)  2 4  5 2  0.000 0.000 0.000  co
  (0.000)  2 3  5 2  0.000 0.000 0.000  co
  (0.000)  2 2  5 2  0.000 0.000 0.000  co
  (0.000)  2 9  5 3  0.000 0.000 0.000  co
  (0.000)  2 8  5 3  0.000 0.000 0.000  co
  (0.000)  2 7  5 3  0.000 0.000 0.000  co
  (0.000)  2 6  5 3  0.000 0.000 0.000  co
  (0.000)  2 5  5 3  0.000 0.000 0.000  co
  (0.000)  2 4  5 3  0.000 0.000 0.000  co
  (0.000)  2 3  5 3  0.000 0.000 0.000  co
  (0.000)  2 2  5 3  0.000 0.000 0.000  co
  (0.000)  2 9  5 4  0.000 0.000 0.000  co
  (0.000)  2 8  5 4  0.000 0.000 0.000  co
  (0.000)  2 7  5 4  0.000 0.000 0.000  co
  (0.000)  2 6  5 4  0.000 0.000 0.000  co
  (0.000)  2 5  5 4  0.000 0.000 0.000  co
  (0.000)  2 4  5 4  0.000 0.000 0.000  co
  (0.000)  2 3  5 4  0.000 0.000 0.000  co
  (0.000)  2 2  5 4  0.000 0.000 0.000  co
  (0.000)  2 9  5 5  0.000 0.000 0.000  co
  (0.000)  2 8  5 5  0.000 0.000 0.000  co
  (0.000)  2 7  5 5  0.000 0.000 0.000  co
  (0.000)  2 6  5 5  0.000 0.000 0.000  co
  (0.000)  2 5  5 5  0.000 0.000 0.000  co
  (0.000)  2 4  5 5  0.000 0.000 0.000  co
  (0.000)  2 3  5 5  0.000 0.000 0.000  co
  (0.000)  2 2  5 5  0.000 0.000 0.000  co
  (0.000)  2 9  5 6  0.000 0.000 0.000  co
  (0.000)  2 8  5 6  0.000 0.000 0.000  co
  (0.000)  2 7  5 6  0.000 0.000 0.000  co
  (0.000)  2 6  5 6  0.000 0.000 0.000  co
  (0.000)  2 5  5 6  0.000 0.000 0.000  co
  (0.000)  2 4  5 6  0.000 0.000 0.000  co
  (0.000)  2 3  5 6  0.000 0.000 0.000  co
  (0.000)  2 2  5 6  0.000 0.000 0.000  co
  (0.000)  2 9  5 7  0.000 0.000 0.000  co
  (0.000)  2 8  5 7  0.000 0.000 0.000  co
  (0.000)  2 7  5 7  0.000 0.000 0.000  co
  (0.000)  2 6  5 7  0.000 0.000 0.000  co
  (0.000)  2 5  5 7  0.000 0.000 0.000  co
  (0.000)  2 4  5 7  0.000 0.000 0.000  co
  (0.000)  2 3  5 7  0.000 0.000 0.000  co
  (0.000)  2 2  5 7  0.000 0.000 0.000  co
  (0.000)  5 7  8 2  0.000 0.000 0.000  co
  (0.000)  5 6  8 2  0.000 0.000 0.000  co
  (0.000)  5 5  8 2  0.000 0.000 0.000  co
  (0.000)  5 4  8 2  0.000 0.000 0.000  co
  (0.000)  5 3  8 2  0.000 0.000 0.000  co
  (0.000)  5 2  8 2  0.000 0.000 0.000  co
  (0.000)  5 7  8 3  0.000 0.000 0.000  co
  (0.000)  5 6  8 3  0.000 0.000 0.000  co
  (0.000)  5 5  8 3  0.000 0.000 0.000  co
  (0.000)  5 4  8 3  0.000 0.000 0.000  co
  (0.000)  5 3  8 3  0.000 0.000 0.000  co
  (0.000)  5 2  8 3  0.000 0.000 0.000  co
  (0.000)  5 7  8 4  0.000 0.000 0.000  co
  (0.000)  5 6  8 4  0.000 0.000 0.000  co
  (0.000)  5 5  8 4  0.000 0.000 0.000  co
  (0.000)  5 4  8 4  0.000 0.000 0.000  co
  (0.000)  5 3  8 4  0.000 0.000 0.000  co
  (0.000)  5 2  8 4  0.000 0.000 0.000  co
  (0.000)  5 7  8 5  0.000 0.000 0.000  co
  (0.000)  5 6  8 5  0.000 0.000 0.000  co
  (0.000)  5 5  8 5  0.000 0.000 0.000  co
  (0.000)  5 4  8 5  0.000 0.000 0.000  co
  (0.000)  5 3  8 5  0.000 0.000 0.000  co
  (0.000)  5 2  8 5  0.000 0.000 0.000  co

%get font
 /fs ufs def
 fo findfont fs scalefont setfont

  (1) (0.000)  0.500 0.500 0.500  2 2  16  du
  (2) (0.000)  0.500 0.500 0.500  2 3  16  du
  (3) (0.000)  0.500 0.500 0.500  2 4  16  du
  (4) (0.000)  0.500 0.500 0.500  2 5  16  du
  (5) (0.000)  0.500 0.500 0.500  2 6  16  du
  (6) (0.000)  0.500 0.500 0.500  2 7  16  du
  (7) (0.000)  0.500 0.500 0.500  2 8  16  du
  (8) (0.000)  0.500 0.500 0.500  2 9  16  du
  (9) (0.000)  0.500 0.500 0.500  5 2  16  du
  (10) (0.000)  0.500 0.500 0.500  5 3  16  du
  (11) (0.000)  0.500 0.500 0.500  5 4  16  du
  (12) (0.000)  0.500 0.500 0.500  5 5  16  du
  (13) (0.000)  0.500 0.500 0.500  5 6  16  du
  (14) (0.000)  0.500 0.500 0.500  5 7  16  du
  (15) (0.000)  0.500 0.500 0.500  8 2  16  du
  (16) (0.000)  0.500 0.500 0.500  8 3  16  du
  (17) (0.000)  0.500 0.500 0.500  8 4  16  du
  (18) (0.000)  0.500 0.500 0.500  8 5  16  du

 showpage


restore gr
%
% End Imported PIC File: ffnet.eps
%
/Times-Roman findfont 150.00 scalefont setfont
2340 5895 m
gs 1 -1 sc medred (OK?) col-1 show gr
/Times-Roman findfont 150.00 scalefont setfont
2747 3467 m
gs 1 -1 sc medred (and QRS-Offset) dup stringwidth pop neg 0 rmoveto  col-1 show gr
/Times-Roman findfont 150.00 scalefont setfont
2747 3287 m
gs 1 -1 sc medred (of QRS-Onset) dup stringwidth pop neg 0 rmoveto  col-1 show gr
/Times-Roman findfont 150.00 scalefont setfont
2747 3107 m
gs 1 -1 sc medred (values) dup stringwidth pop neg 0 rmoveto  col-1 show gr
/Times-Roman findfont 150.00 scalefont setfont
2747 2927 m
gs 1 -1 sc medred (Estimated) dup stringwidth pop neg 0 rmoveto  col-1 show gr
/Times-Roman findfont 90.00 scalefont setfont
900 2385 m
gs 1 -1 sc () col-1 show gr
/Times-Roman findfont 150.00 scalefont setfont
2115 5085 m
gs 1 -1 sc medred (       QRSd RMS LAS) col-1 show gr
$F2psEnd
restore
%%EndDocument
 @endspecial eop
%%Trailer
end
userdict /end-hook known{end-hook}if
%%EOF

%%EndDocument
