%%BeginDocument: ./winmove.eps
%!PS-Adobe-2.0 EPSF-2.0
%%Title: winmove.eps
%%Creator: fig2dev Version 3.2 Patchlevel 1
%%CreationDate: Sat Sep 25 21:51:54 1999
%%For: kestler@i2ep6 (Hans Kestler,,,)
%%Orientation: Portrait
%%BoundingBox: 0 0 289 465
%%Pages: 0
%%BeginSetup
%%EndSetup
%%Magnification: 1.0000
%%EndComments
/$F2psDict 200 dict def
$F2psDict begin
$F2psDict /mtrx matrix put
/col-1 {0 setgray} bind def
/col0 {0.000 0.000 0.000 srgb} bind def
/col1 {0.000 0.000 1.000 srgb} bind def
/col2 {0.000 1.000 0.000 srgb} bind def
/col3 {0.000 1.000 1.000 srgb} bind def
/col4 {1.000 0.000 0.000 srgb} bind def
/col5 {1.000 0.000 1.000 srgb} bind def
/col6 {1.000 1.000 0.000 srgb} bind def
/col7 {1.000 1.000 1.000 srgb} bind def
/col8 {0.000 0.000 0.560 srgb} bind def
/col9 {0.000 0.000 0.690 srgb} bind def
/col10 {0.000 0.000 0.820 srgb} bind def
/col11 {0.530 0.810 1.000 srgb} bind def
/col12 {0.000 0.560 0.000 srgb} bind def
/col13 {0.000 0.690 0.000 srgb} bind def
/col14 {0.000 0.820 0.000 srgb} bind def
/col15 {0.000 0.560 0.560 srgb} bind def
/col16 {0.000 0.690 0.690 srgb} bind def
/col17 {0.000 0.820 0.820 srgb} bind def
/col18 {0.560 0.000 0.000 srgb} bind def
/col19 {0.690 0.000 0.000 srgb} bind def
/col20 {0.820 0.000 0.000 srgb} bind def
/col21 {0.560 0.000 0.560 srgb} bind def
/col22 {0.690 0.000 0.690 srgb} bind def
/col23 {0.820 0.000 0.820 srgb} bind def
/col24 {0.500 0.190 0.000 srgb} bind def
/col25 {0.630 0.250 0.000 srgb} bind def
/col26 {0.750 0.380 0.000 srgb} bind def
/col27 {1.000 0.500 0.500 srgb} bind def
/col28 {1.000 0.630 0.630 srgb} bind def
/col29 {1.000 0.750 0.750 srgb} bind def
/col30 {1.000 0.880 0.880 srgb} bind def
/col31 {1.000 0.840 0.000 srgb} bind def

end
save
-39.0 492.0 translate
1 -1 scale

/cp {closepath} bind def
/ef {eofill} bind def
/gr {grestore} bind def
/gs {gsave} bind def
/sa {save} bind def
/rs {restore} bind def
/l {lineto} bind def
/m {moveto} bind def
/rm {rmoveto} bind def
/n {newpath} bind def
/s {stroke} bind def
/sh {show} bind def
/slc {setlinecap} bind def
/slj {setlinejoin} bind def
/slw {setlinewidth} bind def
/srgb {setrgbcolor} bind def
/rot {rotate} bind def
/sc {scale} bind def
/sd {setdash} bind def
/ff {findfont} bind def
/sf {setfont} bind def
/scf {scalefont} bind def
/sw {stringwidth} bind def
/tr {translate} bind def
/tnt {dup dup currentrgbcolor
  4 -2 roll dup 1 exch sub 3 -1 roll mul add
  4 -2 roll dup 1 exch sub 3 -1 roll mul add
  4 -2 roll dup 1 exch sub 3 -1 roll mul add srgb}
  bind def
/shd {dup dup currentrgbcolor 4 -2 roll mul 4 -2 roll mul
  4 -2 roll mul srgb} bind def
/reencdict 12 dict def /ReEncode { reencdict begin
/newcodesandnames exch def /newfontname exch def /basefontname exch def
/basefontdict basefontname findfont def /newfont basefontdict maxlength dict def
basefontdict { exch dup /FID ne { dup /Encoding eq
{ exch dup length array copy newfont 3 1 roll put }
{ exch newfont 3 1 roll put } ifelse } { pop pop } ifelse } forall
newfont /FontName newfontname put newcodesandnames aload pop
128 1 255 { newfont /Encoding get exch /.notdef put } for
newcodesandnames length 2 idiv { newfont /Encoding get 3 1 roll put } repeat
newfontname newfont definefont pop end } def
/isovec [
8#200 /grave 8#201 /acute 8#202 /circumflex 8#203 /tilde
8#204 /macron 8#205 /breve 8#206 /dotaccent 8#207 /dieresis
8#210 /ring 8#211 /cedilla 8#212 /hungarumlaut 8#213 /ogonek 8#214 /caron
8#220 /dotlessi 8#230 /oe 8#231 /OE
8#240 /space 8#241 /exclamdown 8#242 /cent 8#243 /sterling
8#244 /currency 8#245 /yen 8#246 /brokenbar 8#247 /section 8#250 /dieresis
8#251 /copyright 8#252 /ordfeminine 8#253 /guillemotleft 8#254 /logicalnot
8#255 /endash 8#256 /registered 8#257 /macron 8#260 /degree 8#261 /plusminus
8#262 /twosuperior 8#263 /threesuperior 8#264 /acute 8#265 /mu 8#266 /paragraph
8#267 /periodcentered 8#270 /cedilla 8#271 /onesuperior 8#272 /ordmasculine
8#273 /guillemotright 8#274 /onequarter 8#275 /onehalf
8#276 /threequarters 8#277 /questiondown 8#300 /Agrave 8#301 /Aacute
8#302 /Acircumflex 8#303 /Atilde 8#304 /Adieresis 8#305 /Aring
8#306 /AE 8#307 /Ccedilla 8#310 /Egrave 8#311 /Eacute
8#312 /Ecircumflex 8#313 /Edieresis 8#314 /Igrave 8#315 /Iacute
8#316 /Icircumflex 8#317 /Idieresis 8#320 /Eth 8#321 /Ntilde 8#322 /Ograve
8#323 /Oacute 8#324 /Ocircumflex 8#325 /Otilde 8#326 /Odieresis 8#327 /multiply
8#330 /Oslash 8#331 /Ugrave 8#332 /Uacute 8#333 /Ucircumflex
8#334 /Udieresis 8#335 /Yacute 8#336 /Thorn 8#337 /germandbls 8#340 /agrave
8#341 /aacute 8#342 /acircumflex 8#343 /atilde 8#344 /adieresis 8#345 /aring
8#346 /ae 8#347 /ccedilla 8#350 /egrave 8#351 /eacute
8#352 /ecircumflex 8#353 /edieresis 8#354 /igrave 8#355 /iacute
8#356 /icircumflex 8#357 /idieresis 8#360 /eth 8#361 /ntilde 8#362 /ograve
8#363 /oacute 8#364 /ocircumflex 8#365 /otilde 8#366 /odieresis 8#367 /divide
8#370 /oslash 8#371 /ugrave 8#372 /uacute 8#373 /ucircumflex
8#374 /udieresis 8#375 /yacute 8#376 /thorn 8#377 /ydieresis] def
/Times-Roman /Times-Roman-iso isovec ReEncode
/Helvetica-Bold /Helvetica-Bold-iso isovec ReEncode
/$F2psBegin {$F2psDict begin /$F2psEnteredState save def} def
/$F2psEnd {$F2psEnteredState restore end} def
%%EndProlog

$F2psBegin
10 setmiterlimit
n -1000 8797 m -1000 -1000 l 6193 -1000 l 6193 8797 l cp clip
 0.06299 0.06299 sc
% Polyline
n 1526 7785 m 1534 7785 l gs col0 s gr
% Polyline
7.500 slw
n 900 5400 m 810 5400 l gs col-1 s gr 
% Polyline
%
% Begin Imported EPS File: CompleteFiltered.eps
%%BeginDocument: CompleteFiltered.eps
%
n gs
900 450 tr
8.490566 -7.105263 sc
0 -380 tr
-76 -210 tr
sa
n 76 210 m 553 210 l 553 590 l 76 590 l cp clip n
countdictstack
mark
/showpage {} def
% EPS file follows:
%!PS-Adobe-2.0 EPSF-1.2
%%Creator: MATLAB, The Mathworks, Inc.
%%Title: CompleteFiltered.eps
%%CreationDate: 04/22/97  15:21:56
%%DocumentNeededFonts: Helvetica
%%DocumentProcessColors: Cyan Magenta Yellow Black
%%Pages: 1
%%BoundingBox:    76   210   553   590
%%EndComments

%%BeginProlog

% MathWorks dictionary
/MathWorks 150 dict begin

% definition operators
/bdef {bind def} bind def
/ldef {load def} bind def
/xdef {exch def} bdef
/xstore {exch store} bdef

% operator abbreviations
/c  /clip ldef
/cc /concat ldef
/cp /closepath ldef
/gr /grestore ldef
/gs /gsave ldef
/mt /moveto ldef
/np /newpath ldef
/cm /currentmatrix ldef
/sm /setmatrix ldef
/rc {rectclip} bdef
/rf {rectfill} bdef
/rm /rmoveto ldef
/rl /rlineto ldef
/s /show ldef
/sc {setcmykcolor} bdef
/sr /setrgbcolor ldef
/w /setlinewidth ldef
/j /setlinejoin ldef
/cap /setlinecap ldef

% page state control
/pgsv () def
/bpage {/pgsv save def} bdef
/epage {pgsv restore} bdef
/bplot /gsave ldef
/eplot {stroke grestore} bdef

% orientation switch
/portraitMode 	0 def
/landscapeMode 	1 def

% coordinate system mappings
/dpi2point 0 def

% font control
/FontSize 0 def
/FMS {
	/FontSize xstore		%save size off stack
	findfont
	[FontSize 0 0 FontSize neg 0 0]
	makefont
	setfont
	}bdef

/reencode {
exch dup where
{pop load} {pop StandardEncoding} ifelse
exch
dup 3 1 roll
findfont dup length dict begin
  { 1 index /FID ne {def}{pop pop} ifelse } forall
  /Encoding exch def
  currentdict
end
definefont pop
} bdef

/isroman {
findfont /CharStrings get
/Agrave known
} bdef

/FMSR {
3 1 roll 1 index
dup isroman
{reencode} {pop pop} ifelse
exch FMS
} bdef

/csm {
	1 dpi2point div -1 dpi2point div scale
	neg translate
	landscapeMode eq {90 rotate} if
	} bdef

% line types: solid, dotted, dashed, dotdash
/SO { [] 0 setdash } bdef
/DO { [.5 dpi2point mul 4 dpi2point mul] 0 setdash } bdef
/DA { [6 dpi2point mul] 0 setdash } bdef
/DD { [.5 dpi2point mul 4 dpi2point mul 6 dpi2point mul 4 dpi2point mul] 0 setdash } bdef

% macros for lines and objects
/L {
	lineto
	stroke
	} bdef
/MP {
	3 1 roll moveto
	1 sub {rlineto} repeat
	} bdef
/AP {
	{rlineto} repeat
	} bdef
/PP {
	closepath fill
	} bdef
/DP {
	closepath stroke
	} bdef
/MR {
	4 -2 roll moveto
	dup  0 exch rlineto
	exch 0 rlineto
	neg  0 exch rlineto
	closepath
	} bdef
/FR {
	MR stroke
	} bdef
/PR {
	MR fill
	} bdef
/L1i {
	{ currentfile picstr readhexstring pop } image
	} bdef

/tMatrix matrix def
/MakeOval {
	newpath
	tMatrix currentmatrix pop
	translate scale
	0 0 1 0 360 arc
	tMatrix setmatrix
	} bdef
/FO {
	MakeOval
	stroke
	} bdef
/PO {
	MakeOval
	fill
	} bdef

/PD {
	2 copy moveto lineto stroke
	} bdef


currentdict end def
%%EndProlog

%%BeginSetup
MathWorks begin

0 cap

end
%%EndSetup

%%Page: 1 1
%%BeginPageSetup
%%PageBoundingBox:    76   210   553   590
MathWorks begin
bpage
%%EndPageSetup

%%BeginObject: graph1 1
bplot

/dpi2point 12 def
portraitMode 0216 7344 csm

  701   259  5724  4555 MR c np
76 dict begin %Colortable dictionary
/c0 { 0 0 0 sr} bdef
/c1 { 1 1 1 sr} bdef
/c2 { 1 0 0 sr} bdef
/c3 { 0 1 0 sr} bdef
/c4 { 0 0 1 sr} bdef
/c5 { 1 1 0 sr} bdef
/c6 { 1 0 1 sr} bdef
/c7 { 0 1 1 sr} bdef
%%IncludeResource: font Helvetica
/Helvetica /ISOLatin1Encoding 144 FMSR

1 j
c1
   0    0 6914 5184 PR
6 w
DO
4 w
SO
6 w
c0
 898 4612 mt 6256 4612 L
 898  388 mt 6256  388 L
 898 4612 mt  898  388 L
6256 4612 mt 6256  388 L
 898 4612 mt  898 4612 L
6256 4612 mt 6256 4612 L
 898 4612 mt 6256 4612 L
 898 4612 mt  898  388 L
 898 4612 mt  898 4612 L
 898 4612 mt  898 4558 L
 898  388 mt  898  442 L
 858 4781 mt 
(0) s
1791 4612 mt 1791 4558 L
1791  388 mt 1791  442 L
1671 4781 mt 
(100) s
2684 4612 mt 2684 4558 L
2684  388 mt 2684  442 L
2564 4781 mt 
(200) s
3577 4612 mt 3577 4558 L
3577  388 mt 3577  442 L
3457 4781 mt 
(300) s
4470 4612 mt 4470 4558 L
4470  388 mt 4470  442 L
4350 4781 mt 
(400) s
5363 4612 mt 5363 4558 L
5363  388 mt 5363  442 L
5243 4781 mt 
(500) s
6256 4612 mt 6256 4558 L
6256  388 mt 6256  442 L
6136 4781 mt 
(600) s
 898 4612 mt  952 4612 L
6256 4612 mt 6202 4612 L
 783 4665 mt 
(0) s
 898 3908 mt  952 3908 L
6256 3908 mt 6202 3908 L
 703 3961 mt 
(10) s
 898 3204 mt  952 3204 L
6256 3204 mt 6202 3204 L
 703 3257 mt 
(20) s
 898 2500 mt  952 2500 L
6256 2500 mt 6202 2500 L
 703 2553 mt 
(30) s
 898 1796 mt  952 1796 L
6256 1796 mt 6202 1796 L
 703 1849 mt 
(40) s
 898 1092 mt  952 1092 L
6256 1092 mt 6202 1092 L
 703 1145 mt 
(50) s
 898  388 mt  952  388 L
6256  388 mt 6202  388 L
 703  441 mt 
(60) s
 898 4612 mt 6256 4612 L
 898  388 mt 6256  388 L
 898 4612 mt  898  388 L
6256 4612 mt 6256  388 L
 898  388 mt  898  388 L
6256  388 mt 6256  388 L
gs 898 388 5359 4225 MR c np
9 1351 9 19 9 -1188 9 -844 9 156 9 216 9 199 8 114 
9 15 9 -47 9 -86 9 -110 9 -111 9 -98 9 -90 9 -88 
9 -77 9 -60 9 -6 9 30 9 19 8 5 9 -6 9 -3 
9 4 9 1 9 -12 9 -21 9 -21 9 -12 9 15 9 8 
9 -6 9 -11 9 -3 8 5 9 7 9 1 9 -3 9 3 
9 5 9 -2 9 -10 9 -9 9 6 9 8 9 -2 9 -12 
9 8 8 6 9 -1 9 -4 9 1 9 5 9 4 9 0 
9 -5 9 -10 9 -5 9 5 9 6 9 1 9 -5 9 -6 
8 0 9 3 9 2 9 1 9 -5 9 4 9 3 9 -8 
9 14 9 4 9 -2 9 0 9 -5 9 -13 8 7 9 -6 
9 4 9 -4 9 6 9 2 9 -3 9 -4 9 -1 9 3 
9 0 9 -2 9 5 9 4 8 -2 9 -4 9 0 9 -3 
9 -1 9 -1 9 5 5372 4607 100 MP stroke
9 2 9 -4 9 -1 9 3 9 2 9 -4 9 1 9 6 
8 1 9 -5 9 -4 9 5 9 -2 9 -4 9 1 9 0 
9 2 9 8 9 1 9 -2 9 -2 9 -1 8 -6 9 3 
9 1 9 -4 9 1 9 0 9 -3 9 1 9 -1 9 2 
9 -1 9 -1 9 2 9 1 8 1 9 4 9 -6 9 3 
9 -2 9 -2 9 5 9 7 9 -3 9 -10 9 2 9 3 
9 3 9 -5 8 2 9 1 9 -5 9 1 9 -2 9 4 
9 -3 9 4 9 0 9 -4 9 0 9 7 9 2 9 -9 
9 3 8 -4 9 7 9 3 9 -3 9 -6 9 8 9 7 
9 3 9 -7 9 -7 9 18 9 3 9 -10 9 -10 8 -3 
9 0 9 0 9 7 9 0 9 -7 9 1 9 3 9 -4 
9 2 9 5 9 -3 9 -6 9 0 8 -1 9 0 9 0 
9 0 9 5 9 4 4488 4603 100 MP stroke
9 -5 9 -3 9 0 9 0 9 0 9 1 9 3 9 6 
9 -6 8 1 9 -1 9 0 9 5 9 -6 9 -3 9 7 
9 3 9 -7 9 1 9 -1 9 -2 9 3 9 -4 8 3 
9 -2 9 -1 9 0 9 2 9 6 9 2 9 -2 9 -2 
9 -2 9 -4 9 7 9 8 9 1 8 -9 9 -1 9 9 
9 -2 9 -8 9 -4 9 5 9 -1 9 -4 9 8 9 5 
9 1 9 -2 9 -7 8 -6 9 1 9 5 9 7 9 -1 
9 -9 9 -1 9 2 9 2 9 3 9 0 9 -3 9 1 
9 3 9 -7 8 2 9 0 9 -5 9 5 9 2 9 7 
9 13 9 7 9 -6 9 -11 9 -7 9 -7 9 -2 9 1 
8 -3 9 6 9 10 9 10 9 4 9 -1 9 -1 9 -1 
9 -6 9 -6 9 -2 9 -4 9 -9 9 5 8 -3 9 15 
9 6 9 -8 9 -10 3604 4607 100 MP stroke
9 -2 9 4 9 6 9 3 9 -2 9 -6 9 -7 9 9 
9 11 9 7 8 -5 9 -16 9 7 9 19 9 16 9 3 
9 -8 9 -5 9 11 9 25 9 29 9 32 9 35 9 26 
8 6 9 -12 9 -20 9 -11 9 4 9 14 9 4 9 -2 
9 11 9 25 9 37 9 49 9 53 9 45 8 14 9 -22 
9 -36 9 -26 9 -15 9 -23 9 -46 9 -64 9 -64 9 -47 
9 -16 9 9 9 17 9 24 8 44 9 75 9 85 9 64 
9 39 9 2 9 -66 9 -144 9 -193 9 161 9 113 9 30 
9 -11 9 -23 9 -61 8 -87 9 -54 9 -6 9 26 9 67 
9 118 9 108 9 16 9 -59 9 -47 9 -16 9 -30 9 -55 
9 -91 8 -74 9 144 9 1 9 -172 9 257 9 244 9 257 
9 236 9 126 9 -7 9 -103 9 -159 9 -149 9 -62 8 57 
9 130 9 125 9 77 2720 3574 100 MP stroke
9 64 9 140 9 291 9 404 9 -575 9 -644 9 -684 9 581 
9 268 9 158 9 301 8 481 9 598 9 674 9 630 9 389 
9 2 9 -410 9 -628 9 -485 9 -139 9 73 9 -25 9 -232 
9 -238 8 -44 9 62 9 -9 9 -63 9 -98 9 -312 9 -577 
9 -584 9 -383 9 223 9 331 9 339 9 156 9 26 8 48 
9 -11 9 -185 9 -279 9 -219 9 -99 9 -12 9 -28 9 -123 
9 -187 9 225 9 263 9 327 9 324 8 184 9 58 9 44 
9 11 9 -123 9 -279 9 -399 9 -503 9 289 9 551 9 510 
9 432 9 271 9 94 9 48 8 87 9 -21 9 -290 9 -484 
9 -468 9 -358 9 -305 9 -291 9 -197 9 32 9 73 9 214 
9 107 9 -122 8 -274 9 162 9 89 9 1 9 6 9 44 
9 29 9 -52 9 -105 9 -54 9 25 9 37 9 2 9 -14 
8 12 9 21 9 -26 1836 4401 100 MP stroke
9 -48 9 -15 9 18 9 13 9 -7 9 -4 9 19 9 31 
9 3 9 -40 9 -60 9 -48 8 -34 9 -29 9 -1 9 3 
9 -2 9 1 9 -6 9 3 9 2 9 -9 9 5 9 -1 
9 -2 9 10 8 10 9 8 9 7 9 -2 9 -15 9 -16 
9 -5 9 6 9 4 9 -1 9 -3 9 1 9 1 9 0 
8 -4 9 2 9 18 9 18 9 2 9 -14 9 -15 9 -7 
9 -6 9 4 9 5 9 -3 9 -7 9 6 8 1 9 0 
9 1 9 -1 9 -3 9 -2 9 5 9 5 9 -4 9 -5 
9 12 9 3 9 -9 9 -8 9 1 8 2 9 -5 9 8 
9 3 9 -5 9 0 9 13 9 7 9 2 9 3 9 6 
9 2 9 2 9 8 8 5 9 -14 9 -31 9 16 9 33 
9 37 9 44 9 45 9 35 9 26 9 30 9 25 9 0 
9 -40 8 -71 9 -72 952 4495 100 MP stroke
9 -116 9 300 9 430 9 3 9 -471 907 4349 6 MP stroke

gr 

end

eplot
%%EndObject graph 1

epage
end

showpage

%%Trailer
%%EOF
cleartomark
countdictstack exch sub { end } repeat
restore grestore
%
% End Imported PIC File: CompleteFiltered.eps
%%EndDocument
%
% Polyline
n 1575 5400 m 1575 4500 l 2700 4500 l 2925 4500 l 2925 5400 l gs col-1 s gr 
% Polyline
 [60] 0 sd
n 1575 675 m 1575 5625 l gs col-1 s gr  [] 0 sd
% Polyline
 [15 45] 45 sd
gs  clippath
1275 4185 m 1245 4305 l 1215 4185 l 1215 4320 l 1275 4320 l cp
clip
n 1245 3630 m 1245 4305 l gs col-1 s gr gr
 [] 0 sd
% arrowhead
n 1275 4185 m 1245 4305 l 1215 4185 l 1245 4185 l 1275 4185 l  cp gs col7 1.00 shd ef gr  col-1 s
% Polyline
 [60] 0 sd
n 2925 675 m 2925 5623 l gs col-1 s gr  [] 0 sd
% Polyline
30.000 slw
gs  clippath
2053 3285 m 2413 3375 l 2053 3465 l 2520 3465 l 2520 3285 l cp
clip
n 1350 3375 m 2475 3375 l gs col-1 s gr gr

% arrowhead
n 2053 3285 m 2413 3375 l 2053 3465 l 2053 3375 l 2053 3285 l  cp gs 0.00 setgray ef gr  col-1 s
% Polyline
7.500 slw
n 900 3600 m 900 5400 l 4950 5400 l gs col-1 s gr 
% Polyline
n 1125 2700 m 1350 2700 l 1350 3600 l 1125 3600 l cp gs col-1 s gr 
/Helvetica-Bold-iso ff 180.00 scf sf
630 3690 m
gs 1 -1 sc (y\(t\)) col-1 sh gr
% Polyline
n 900 4500 m 810 4500 l gs col-1 s gr 
/Times-Roman-iso ff 180.00 scf sf
675 4590 m
gs 1 -1 sc (1) col-1 sh gr
/Times-Roman-iso ff 180.00 scf sf
675 5445 m
gs 1 -1 sc (0) col-1 sh gr
/Helvetica-Bold-iso ff 180.00 scf sf
1170 3870 m
gs 1 -1 sc (Inputwindow) col-1 sh gr
/Helvetica-Bold-iso ff 180.00 scf sf
3240 4455 m
gs 1 -1 sc (Target net value y\(t\)) col-1 sh gr
/Helvetica-Bold-iso ff 180.00 scf sf
2685 5865 m
gs 1 -1 sc (QRS-Offset) col-1 sh gr
/Helvetica-Bold-iso ff 180.00 scf sf
1155 5880 m
gs 1 -1 sc (QRS-Onset) col-1 sh gr
/Helvetica-Bold-iso ff 180.00 scf sf
4680 5580 m
gs 1 -1 sc (t) col-1 sh gr
$F2psEnd
rs

%%EndDocument
