\relax 
\bibstyle{cinc}
\citation{PhysioNet_challenge}
\citation{EEG_freq_bands}
\citation{EEG_freq_bands}
\citation{EEG_Welch}
\citation{EEG_ApEn}
\citation{Pincus_ApEn}
\citation{Pincus_ApEn}
\citation{EOG_features}
\citation{Airflow_envelope}
\citation{Airflow_envelope}
\@writefile{toc}{\contentsline {section}{\numberline {1}Introduction}{1}}
\@writefile{toc}{\contentsline {section}{\numberline {2}Feature extraction}{1}}
\citation{Springer_Homomorphic}
\citation{hamilton2002open}
\citation{ruder_multitask}
\@writefile{lof}{\contentsline {figure}{\numberline {1}{\ignorespaces Network architecture.}}{2}}
\newlabel{FIG_network_architecture}{{1}{2}}
\@writefile{toc}{\contentsline {subsection}{\numberline {2.1}Time-slot extraction}{2}}
\@writefile{toc}{\contentsline {section}{\numberline {3}Neural network training}{2}}
\@writefile{toc}{\contentsline {subsection}{\numberline {3.1}Network structure}{2}}
\@writefile{toc}{\contentsline {subsection}{\numberline {3.2}Auxiliary loss}{2}}
\@writefile{toc}{\contentsline {subsection}{\numberline {3.3}Data filtering, data imbalance}{2}}
\@writefile{toc}{\contentsline {section}{\numberline {4}Discussion}{3}}
\@writefile{toc}{\contentsline {subsection}{\numberline {4.1}Batch size}{3}}
\@writefile{lot}{\contentsline {table}{\numberline {1}{\ignorespaces Batch size effect on AUPRC result.}}{3}}
\@writefile{toc}{\contentsline {subsection}{\numberline {4.2} Auxiliary loss weight}{3}}
\@writefile{lof}{\contentsline {figure}{\numberline {2}{\ignorespaces The Effect of the Weight of the Auxiliary Loss.}}{3}}
\newlabel{FIG_arousal_weights}{{2}{3}}
\@writefile{toc}{\contentsline {subsection}{\numberline {4.3}Representation within the neural network}{3}}
\@writefile{lof}{\contentsline {figure}{\numberline {3}{\ignorespaces Input filter representation.}}{3}}
\newlabel{FIG_filter_coeffs}{{3}{3}}
\@writefile{toc}{\contentsline {subsection}{\numberline {4.4}Dropout}{3}}
\@writefile{toc}{\contentsline {subsection}{\numberline {4.5}Postprocess}{3}}
\bibdata{refs}
\bibcite{PhysioNet_challenge}{1}
\bibcite{EEG_freq_bands}{2}
\bibcite{EEG_Welch}{3}
\bibcite{EEG_ApEn}{4}
\bibcite{Pincus_ApEn}{5}
\bibcite{EOG_features}{6}
\bibcite{Airflow_envelope}{7}
\bibcite{Springer_Homomorphic}{8}
\bibcite{hamilton2002open}{9}
\bibcite{ruder_multitask}{10}
\@writefile{toc}{\contentsline {section}{\numberline {5}Conclusion}{4}}
