%!PS-Adobe-1.0
%%BoundingBox: 88 247 418 447
% pslw.pro	Prolog file for plt with the LaserWriter
% 
count /numstack exch def
save 100 dict begin /pslw exch def

/ED	{exch def} def
/IN	{exch 72 mul def} def

/CLOSE	{count numstack sub {pop} repeat pslw end restore} def

/BF	{gsave INIT} def
/EF	{grestore} def

/LS	{} def
/INIT	{0 setlinecap LS /DMTX matrix currentmatrix def
	/XOFF [0 0 0 -.5 -1 -1 -1 -.5 -.5 -.5 -.6 -.6] def
	/YOFF [0 -.37 -1 -1 -1 -.37 0 0 -.37 .25 -1.25 .25] def
	/XM 0 def /YM 0 def /XYM 0 def} def

/WSUBST	{} def

/WDEF	{/ury ED /urx ED /lly ED /llx ED
	WSUBST /y1 IN /x1 IN /y0 IN /x0 IN /FSCL ED
	gsave matrix setmatrix
	x0 2 add y0 2 add translate 
	x1 x0 sub 4 sub urx llx sub div
	y1 y0 sub 4 sub ury lly sub div scale
	llx neg lly neg translate
	/PMTX matrix currentmatrix def grestore} def

/M	{newpath PMTX transform moveto} def
/N	{PMTX dtransform rlineto} def
/L	{N currentpoint stroke moveto} def
/F	{closepath 0 eq {fill} {FS} ifelse} def
/FS	{currentgray dup FILL 0 setgray stroke setgray} def

/T	{/ang ED /pos ED M ang rotate
	/str ED str stringwidth pop
	XOFF pos get mul
	YOFF pos get PS mul XYM FSCL mul add
	rmoveto str show
	/XYM 0 def SDM} def

/GT	{7 0 T} def
/XT	{/XYM XM neg def 3 0 T /XM 0 def} def
/XTR	{/XYM XM def 7 0 T /XM 0 def} def
/YT	{/XYM YM def 7 90 T /YM 0 def} def
/YTR	{/XYM YM neg def 3 90 T /YM 0 def} def

/XN	{/XM PS def 3 0 T} def
/XNR	{/XM PS def 9 0 T} def
/XE	{10 1.25 XEX} def
/XER	{11 1.5 XEX} def
/XEX	{6 -1 roll /exp ED PS mul /XM ED 0 T EX} def

/YN	{-1 1 0 YNUM} def
/YNR	{1 0 0 YNUM} def
/YE	{-1 1 YEX} def
/YER	{1 0 YEX} def

/YEX	{6 -1 roll /exp ED exp stringwidth pop .65 mul YNUM EX} def
/YNUM	{6 3 roll M /str ED str stringwidth pop add /len ED
	len mul .2 PS mul add mul PS -.37 mul rmoveto
	str show /YM len .2 PS mul add YM MAX def} def

/EX	{0 PS .6 mul rmoveto .65 .65 scale exp show SDM} def

/SP	{/y ED /x ED /yp ED /yn ED /str ED
	x y M currentpoint
	str false charpath PBOX newpath
	exch dup add x0 x1 add 2 div sub
	exch dup add y0 y1 add 2 div sub moveto
	str false charpath gsave fill EB} def

/SY	{/y ED /x ED /yp ED /yn ED /st ED
	newpath x y M PS 4 div dup scale
	[{CIR} {UTRI} {DI} {SQ} {TRI}] st 5 mod get exec
	closepath SDM gsave 
	[{1 FILL stroke} {fill} {stroke}] st 5 idiv 3 mod get exec
	EB} def

/EB {	grestore PMTX concat PBOX SDM
	y1 y sub yp le {yp y1 EB2} if 
	y0 y sub yn ge {yn y0 EB2} if} def
/EB2	{newpath x exch M 0 exch N x0 x sub 0 N x1 x0 sub 0 N stroke} def

/CIR	{currentpoint newpath 1.1 0 360 arc} def
/TRI	{0 1.2 rmoveto -1.2 -2.4 rlineto 2.4 0 rlineto} def
/DI	{ 0 -1.5 rmoveto 1.3 1.5 rlineto
	-1.3 1.5  rlineto -1.3 -1.5 rlineto} def
/UTRI	{180 rotate TRI 180 rotate} def
/SQ	{1 1 rmoveto -2 0 rlineto 0 -2 rlineto 2 0
	rlineto} def

/LW	{.2 mul FSCL mul setlinewidth} def
/SF	{FSCL mul /PS ED findfont PS scalefont setfont} def
/DL	{PS mul .05 mul} def

/solid		{{}0} def
/dotted		{[1 DL 3 DL] 0} def
/longdashed	{[7 DL] 0} def
/shortdashed	{[4 DL 5 DL] 0} def
/dotdashed	{[1 DL 5 DL 6 DL 5 DL] 0} def

/MAX	{2 copy lt {exch pop} {pop} ifelse} def
/SDM	{DMTX setmatrix} def
/FILL	{gsave setgray fill grestore} def
/PBOX	{pathbbox /y1 ED /x1 ED /y0 ED /x0 ED} def
/WSUBST { pop pop pop pop pop 0.60 1.25 3.50  6.00  6.65} def
INIT
0.85 0.775 3.35 7.975 9.35 0 0 4320 3600 WDEF
/Times-Roman 16 SF
solid setdash
0 setgray
3 LW
/Times-Roman 13 SF
4082 1907 M
-3650 0 L
432 1879 M
0 28 L
1162 1865 M
0 42 L
(360) 1162 1865 XN
1892 1879 M
0 28 L
2622 1865 M
0 42 L
(480) 2622 1865 XN
3352 1879 M
0 28 L
4082 1865 M
0 42 L
(600) 4082 1865 XN
4 LW
/Times-Roman 15 SF
(Time \(sec\)) 2257 1788 XT
3 LW
/Times-Roman 13 SF
432 3060 M
0 -1153 L
390 1907 M
42 0 L
(0) 390 1907 YN
404 2099 M
28 0 L
390 2291 M
42 0 L
(50) 390 2291 YN
404 2483 M
28 0 L
390 2676 M
42 0 L
(100) 390 2676 YN
404 2868 M
28 0 L
390 3060 M
42 0 L
(150) 390 3060 YN
4 LW
/Times-Roman 15 SF
(HR \(bpm\)) 164 2483 YT
2 LW
/Times-Roman 12 SF
438 2527 M
6 0 N
6 -4 N
6 -17 N
6 -26 N
6 -40 N
7 -33 N
6 -14 N
6 -10 N
6 14 N
6 10 N
6 -4 N
6 -8 N
6 -11 N
6 -11 N
6 -9 N
6 -4 N
6 3 N
7 4 N
6 7 N
6 2 N
6 -4 N
6 0 N
6 4 N
6 5 N
6 7 N
6 6 N
6 4 N
6 11 N
6 12 N
7 13 N
6 9 N
6 -8 N
6 -2 N
6 10 N
6 5 N
6 0 N
6 -10 N
6 -10 N
6 -2 N
6 0 N
6 3 N
7 2 N
6 0 N
6 2 N
6 2 N
6 -2 N
6 -2 N
6 0 N
6 3 N
6 3 N
6 -2 N
6 -2 N
6 6 N
7 4 N
6 0 N
6 2 N
6 4 N
6 12 N
6 16 N
6 10 N
6 9 N
6 -1 N
6 -17 N
6 -9 N
6 5 N
7 13 N
6 15 N
6 8 N
6 10 N
6 3 N
6 -8 N
6 -14 N
6 -18 N
6 -18 N
6 7 N
6 29 N
6 20 N
7 5 N
6 -9 N
6 -21 N
6 -31 N
6 -28 N
6 -17 N
6 -6 N
6 13 N
6 14 N
6 -5 N
6 -15 N
6 -23 N
7 -14 N
6 -3 N
6 3 N
6 8 N
6 12 N
6 12 N
6 10 N
6 6 N
6 -8 N
6 -8 N
6 -2 N
6 1 N
7 4 N
6 6 N
6 5 N
6 1 N
6 -1 N
6 -9 N
6 -8 N
6 -6 N
6 -3 N
6 0 N
6 1 N
6 1 N
7 -2 N
6 -4 N
6 1 N
6 1 N
6 5 N
6 3 N
6 -2 N
6 5 N
6 16 N
6 11 N
6 2 N
6 -2 N
7 -5 N
6 -3 N
6 -4 N
6 -3 N
6 -1 N
6 0 N
6 2 N
6 2 N
6 1 N
6 -1 N
6 -1 N
6 2 N
7 5 N
6 6 N
6 6 N
6 10 N
6 14 N
6 14 N
6 14 N
6 3 N
6 -7 N
6 -14 N
6 -13 N
6 -4 N
7 3 N
6 11 N
6 19 N
6 17 N
6 11 N
6 0 N
6 -13 N
6 -15 N
6 -3 N
6 9 N
6 8 N
6 7 N
7 5 N
6 0 N
6 -10 N
6 -13 N
6 -16 N
6 -8 N
6 5 N
6 10 N
6 -1 N
6 -28 N
6 -33 N
6 -24 N
7 -21 N
6 -15 N
6 2 N
6 11 N
6 12 N
6 12 N
6 1 N
6 -4 N
6 1 N
6 2 N
6 8 N
6 9 N
7 9 N
6 9 N
6 6 N
6 11 N
6 8 N
6 0 N
6 -6 N
6 -7 N
6 -10 N
6 -9 N
6 -9 N
6 -6 N
7 1 N
6 -4 N
6 -9 N
6 -8 N
6 -5 N
6 -8 N
6 -7 N
6 -4 N
6 -2 N
6 3 N
6 4 N
6 5 N
7 5 N
6 11 N
6 13 N
6 6 N
6 5 N
6 2 N
6 0 N
6 -1 N
6 0 N
6 1 N
6 -3 N
6 -1 N
7 13 N
6 15 N
6 9 N
6 19 N
6 17 N
6 -1 N
6 -1 N
6 0 N
6 -11 N
6 -10 N
6 -2 N
6 16 N
7 22 N
6 12 N
6 3 N
6 -9 N
6 -13 N
6 -20 N
6 -15 N
6 3 N
6 11 N
6 10 N
6 15 N
6 6 N
7 -13 N
6 -20 N
6 -15 N
6 -10 N
6 -5 N
6 7 N
6 -4 N
6 -10 N
6 -25 N
6 -24 N
6 -16 N
6 -13 N
7 7 N
6 7 N
6 6 N
6 5 N
6 -6 N
6 -6 N
6 -4 N
6 -3 N
6 2 N
6 3 N
6 10 N
6 7 N
7 -2 N
6 1 N
6 5 N
6 0 N
6 -4 N
6 1 N
6 4 N
6 3 N
6 2 N
6 -2 N
6 -3 N
6 0 N
7 0 N
6 2 N
6 2 N
6 1 N
6 2 N
6 2 N
6 1 N
6 -2 N
6 2 N
6 3 N
6 8 N
6 9 N
7 4 N
6 5 N
6 5 N
6 8 N
6 8 N
6 5 N
6 6 N
6 13 N
6 16 N
6 9 N
6 6 N
6 10 N
7 12 N
6 4 N
6 -1 N
6 -3 N
6 -6 N
6 -3 N
6 2 N
6 8 N
6 -7 N
6 -11 N
6 14 N
6 13 N
7 -7 N
6 -14 N
6 -17 N
6 -13 N
6 -11 N
6 8 N
6 22 N
6 4 N
6 -32 N
6 -47 N
6 -36 N
6 -22 N
7 -3 N
6 1 N
6 14 N
6 16 N
6 -9 N
6 -12 N
6 -10 N
6 -9 N
6 -3 N
6 -2 N
6 6 N
6 5 N
7 8 N
6 6 N
6 -6 N
6 -7 N
6 -5 N
6 -3 N
6 3 N
6 2 N
6 0 N
6 1 N
6 6 N
6 4 N
7 0 N
6 -1 N
6 -3 N
6 -3 N
6 2 N
6 5 N
6 9 N
6 4 N
6 -3 N
6 -1 N
6 1 N
6 -1 N
7 -2 N
6 -2 N
6 -2 N
6 4 N
6 6 N
6 1 N
6 -1 N
6 -1 N
6 1 N
6 5 N
6 7 N
6 6 N
7 8 N
6 7 N
6 7 N
6 5 N
6 8 N
6 6 N
6 2 N
6 10 N
6 15 N
6 15 N
6 7 N
6 -6 N
7 -16 N
6 -16 N
6 -9 N
6 -5 N
6 2 N
6 25 N
6 28 N
6 6 N
6 -12 N
6 -14 N
6 4 N
6 8 N
7 3 N
6 15 N
6 14 N
6 3 N
6 3 N
6 -11 N
6 -21 N
6 -28 N
6 -26 N
6 -18 N
6 -13 N
6 -4 N
7 5 N
6 10 N
6 -16 N
6 -20 N
6 -13 N
6 -12 N
6 -8 N
6 -6 N
6 5 N
6 6 N
6 -5 N
6 -4 N
7 0 N
6 0 N
6 0 N
6 1 N
6 3 N
6 2 N
6 4 N
6 5 N
6 2 N
6 1 N
6 -1 N
6 -1 N
7 3 N
6 4 N
6 -1 N
6 -2 N
6 -3 N
6 -3 N
6 -4 N
6 -5 N
6 1 N
6 1 N
6 7 N
6 9 N
7 3 N
6 3 N
6 6 N
6 5 N
6 7 N
6 7 N
6 6 N
6 5 N
6 4 N
6 5 N
6 5 N
6 6 N
7 6 N
6 4 N
6 7 N
6 8 N
6 13 N
6 12 N
6 6 N
6 1 N
6 -6 N
6 -9 N
6 -4 N
6 1 N
7 17 N
6 18 N
6 1 N
6 -5 N
6 -10 N
6 -9 N
6 -30 N
6 -26 N
6 28 N
6 35 N
6 8 N
6 -11 N
7 -19 N
6 -13 N
6 -17 N
6 -14 N
6 17 N
6 23 N
6 0 N
6 -18 N
6 -26 N
6 -19 N
6 -11 N
6 -8 N
7 -7 N
6 9 N
6 8 N
6 -4 N
6 -6 N
6 -8 N
6 -6 N
6 -2 N
6 0 N
6 5 N
6 8 N
6 11 N
7 7 N
6 -2 N
6 0 N
6 0 N
6 6 N
6 6 N
6 -1 N
6 0 N
6 13 N
6 10 N
6 0 N
6 -3 N
7 -5 N
6 -1 N
6 -1 N
6 -6 N
6 -6 N
6 -4 N
6 2 N
6 5 N
6 5 N
6 2 N
6 3 N
6 3 N
7 5 N
6 4 N
6 0 N
6 0 N
6 0 N
6 -3 N
6 -2 N
6 -2 N
6 7 N
6 12 N
6 0 N
6 -7 N
7 -5 N
6 -3 N
6 -1 N
6 1 N
6 2 N
6 21 N
6 27 N
6 16 N
6 11 N
6 3 N
6 6 N
6 -1 N
7 -4 N
6 2 N
6 13 N
6 14 N
6 7 N
6 -5 N
6 -14 N
6 -9 N
6 -12 N
6 -8 N
6 -2 N
6 12 N
7 13 N
6 0 N
6 -22 N
6 -26 N
6 -13 N
6 -17 N
6 -13 N
6 -1 N
6 4 N
6 4 N
6 -4 N
6 -11 N
7 -10 N
6 -7 N
6 -4 N
6 -3 N
6 9 N
6 4 N
6 -12 N
6 -6 N
6 6 N
6 2 N
6 0 N
6 1 N
7 1 N
6 4 N
6 3 N
6 -3 N
6 -2 N
0 0 L
432 1907 M
0.85 0.775 3.35 7.975 9.35 0 0 4320 3600 WDEF
/Times-Roman 16 SF
solid setdash
0 setgray
4 LW
/Times-Roman 12 SF
469 2214 M
11 -25 N
12 27 N
11 -8 N
12 -23 N
11 -18 N
13 5 N
12 13 N
12 -7 N
12 7 N
12 14 N
12 9 N
11 24 N
11 22 N
10 -17 N
11 19 N
10 0 N
11 -19 N
11 -5 N
10 7 N
11 0 N
11 5 N
10 -5 N
11 0 N
11 7 N
10 -7 N
11 12 N
11 0 N
10 5 N
10 24 N
10 20 N
10 9 N
9 -34 N
10 8 N
10 23 N
10 16 N
9 13 N
9 -17 N
9 -21 N
10 -36 N
10 54 N
10 23 N
9 -13 N
9 -37 N
10 -56 N
10 -11 N
12 30 N
10 -12 N
11 -46 N
11 -6 N
12 16 N
12 24 N
11 14 N
10 -16 N
11 -4 N
12 9 N
10 9 N
11 0 N
11 -16 N
11 -11 N
11 0 N
11 2 N
12 -6 N
11 2 N
11 8 N
12 -4 N
11 32 N
10 5 N
11 -7 N
10 -7 N
11 -5 N
11 0 N
11 5 N
11 0 N
10 -3 N
11 10 N
11 10 N
10 18 N
10 28 N
10 12 N
9 -15 N
10 -25 N
10 -3 N
10 22 N
10 31 N
9 16 N
9 -16 N
9 -28 N
10 18 N
9 10 N
10 9 N
9 -3 N
9 -25 N
9 -23 N
10 11 N
10 15 N
10 -57 N
0 0 L
1511 2193 M
12 23 N
11 -6 N
11 2 N
12 15 N
10 17 N
11 12 N
10 19 N
10 -3 N
11 -16 N
10 -15 N
11 -16 N
11 2 N
11 -17 N
11 -11 N
11 -15 N
12 -4 N
13 7 N
11 10 N
12 24 N
11 11 N
11 2 N
11 -2 N
11 2 N
10 -7 N
11 27 N
11 18 N
10 34 N
9 -6 N
10 3 N
9 -23 N
10 -3 N
10 38 N
10 20 N
9 -10 N
9 -25 N
10 -31 N
10 14 N
10 20 N
9 22 N
9 -28 N
10 -28 N
10 -15 N
10 13 N
11 -21 N
10 -45 N
0 0 L
2007 2184 M
12 13 N
12 -12 N
12 -9 N
12 4 N
12 19 N
11 -4 N
12 10 N
12 -8 N
11 8 N
12 5 N
11 -7 N
11 0 N
12 5 N
11 2 N
12 4 N
11 -2 N
11 6 N
11 16 N
11 7 N
11 10 N
10 16 N
10 5 N
10 25 N
10 18 N
9 7 N
0 0 L
2305 2345 M
9 -4 N
8 -10 N
10 0 N
9 17 N
9 -33 N
9 37 N
9 -4 N
9 -26 N
9 -22 N
9 -17 N
10 45 N
9 -10 N
0 0 L
2459 2216 M
11 -23 N
0 0 L
2506 2180 M
12 15 N
12 -13 N
12 -10 N
12 6 N
12 0 N
12 11 N
12 0 N
12 -7 N
12 3 N
12 18 N
12 -6 N
11 2 N
12 -4 N
11 -4 N
12 12 N
12 -2 N
11 0 N
12 11 N
11 13 N
11 14 N
11 10 N
10 12 N
11 3 N
10 30 N
9 18 N
10 -12 N
9 -28 N
10 -16 N
11 5 N
10 57 N
9 0 N
10 -30 N
9 15 N
10 6 N
9 26 N
10 6 N
8 4 N
9 -42 N
10 -39 N
10 -37 N
11 -6 N
11 18 N
11 -38 N
0 0 L
3005 2172 M
12 -9 N
13 0 N
12 2 N
13 6 N
12 9 N
12 2 N
12 -2 N
12 7 N
12 -3 N
12 -6 N
12 -9 N
13 2 N
12 16 N
12 6 N
12 10 N
11 13 N
11 11 N
11 7 N
11 10 N
11 10 N
10 7 N
10 16 N
10 20 N
10 12 N
9 -9 N
10 -14 N
10 2 N
10 34 N
9 3 N
9 -13 N
9 -18 N
10 -57 N
11 66 N
9 15 N
10 -30 N
9 -24 N
11 -27 N
10 46 N
10 -3 N
10 -53 N
11 -22 N
12 -14 N
11 19 N
12 -9 N
11 -16 N
12 -3 N
12 9 N
12 23 N
11 -2 N
12 0 N
11 13 N
11 -4 N
11 25 N
10 0 N
11 -9 N
11 0 N
11 -12 N
11 -7 N
11 12 N
11 4 N
10 5 N
11 10 N
11 0 N
10 0 N
11 -5 N
10 -3 N
11 26 N
10 -13 N
11 -8 N
10 -2 N
11 5 N
10 42 N
10 31 N
9 3 N
9 10 N
9 -10 N
10 6 N
9 24 N
8 11 N
9 -18 N
9 -17 N
9 -16 N
9 -3 N
10 26 N
9 0 N
9 -44 N
9 -25 N
11 -25 N
10 5 N
11 7 N
10 -22 N
11 -13 N
11 -7 N
11 18 N
11 -24 N
11 10 N
12 0 N
11 3 N
11 6 N
11 -6 N
0 0 L
432 1907 M
0.85 0.775 3.35 7.975 9.35 0 0 4320 3600 WDEF
/Times-Roman 16 SF
solid setdash
0 setgray
3 LW
/Times-Roman 13 SF
4082 252 M
-3650 0 L
432 210 M
0 42 L
(0.0) 432 210 XN
797 224 M
0 28 L
1162 210 M
0 42 L
(0.1) 1162 210 XN
1527 224 M
0 28 L
1892 210 M
0 42 L
(0.2) 1892 210 XN
2257 224 M
0 28 L
2622 210 M
0 42 L
(0.3) 2622 210 XN
2987 224 M
0 28 L
3352 210 M
0 42 L
(0.4) 3352 210 XN
3717 224 M
0 28 L
4082 210 M
0 42 L
(0.5) 4082 210 XN
4 LW
/Times-Roman 15 SF
(Frequency \(Hz\)) 2257 133 XT
3 LW
/Times-Roman 13 SF
432 1403 M
0 -1151 L
390 252 M
42 0 L
(-12) (10) 390 252 YE
404 334 M
28 0 L
404 416 M
28 0 L
390 499 M
42 0 L
(-9) (10) 390 499 YE
404 581 M
28 0 L
404 663 M
28 0 L
390 745 M
42 0 L
(-6) (10) 390 745 YE
404 827 M
28 0 L
404 910 M
28 0 L
390 992 M
42 0 L
(-3) (10) 390 992 YE
404 1074 M
28 0 L
404 1156 M
28 0 L
390 1239 M
42 0 L
(0) (10) 390 1239 YE
404 1321 M
28 0 L
404 1403 M
28 0 L
4 LW
/Times-Roman 15 SF
(Power) 164 827 YT
/Times-Roman 12 SF
463 1148 M
24 -3 N
25 -70 N
25 89 N
24 -13 N
25 83 N
24 22 N
25 -124 N
25 -17 N
24 3 N
25 23 N
24 -24 N
25 14 N
25 68 N
24 -86 N
25 -33 N
24 18 N
25 13 N
25 8 N
24 -55 N
25 13 N
24 -14 N
25 -20 N
25 32 N
24 14 N
25 3 N
24 16 N
25 -107 N
25 29 N
24 19 N
25 -8 N
24 -75 N
25 90 N
25 20 N
24 -2 N
25 9 N
24 -79 N
25 68 N
25 -46 N
24 -20 N
25 -24 N
25 63 N
24 -4 N
25 -56 N
24 46 N
25 -19 N
25 -70 N
24 91 N
25 -21 N
24 24 N
25 50 N
25 -15 N
24 -35 N
25 -25 N
24 27 N
25 -2 N
25 28 N
24 1 N
25 -27 N
24 12 N
25 28 N
25 3 N
24 20 N
25 -16 N
24 -50 N
25 23 N
25 29 N
24 23 N
25 -56 N
24 23 N
25 19 N
25 -50 N
24 6 N
25 41 N
24 -28 N
25 -35 N
25 -3 N
24 15 N
25 22 N
24 5 N
25 18 N
25 -58 N
24 -28 N
25 23 N
24 -13 N
25 46 N
25 -50 N
24 34 N
25 -34 N
24 -22 N
25 38 N
25 6 N
24 13 N
25 -6 N
24 -69 N
25 18 N
25 -44 N
24 74 N
25 2 N
25 5 N
24 25 N
25 -25 N
24 -4 N
25 -13 N
25 27 N
24 0 N
25 -42 N
24 -7 N
25 9 N
25 9 N
24 -1 N
25 10 N
24 -44 N
25 84 N
25 12 N
24 -109 N
25 35 N
24 -24 N
25 17 N
25 11 N
24 -9 N
25 53 N
24 -33 N
25 -23 N
25 31 N
24 -17 N
25 -9 N
24 54 N
25 -63 N
25 22 N
24 15 N
25 -26 N
24 -34 N
25 27 N
25 43 N
24 13 N
25 -31 N
24 36 N
25 -70 N
25 6 N
24 -25 N
25 51 N
24 -21 N
25 -75 N
25 91 N
24 26 N
25 -80 N
24 59 N
0 0 L
432 252 M
0.85 0.775 3.35 7.975 9.35 0 0 4320 3600 WDEF
/Times-Roman 16 SF
dotted setdash
0 setgray
4 LW
/Times-Roman 12 SF
dotted setdash
446 970 M
15 1 N
14 1 N
14 1 N
14 2 N
15 3 N
14 2 N
14 4 N
14 4 N
15 5 N
14 6 N
14 5 N
14 5 N
15 0 N
14 -3 N
14 -7 N
14 -7 N
15 -7 N
14 -6 N
14 -5 N
14 -5 N
15 -4 N
14 -4 N
14 -3 N
14 -3 N
15 -3 N
14 -2 N
14 -2 N
14 -2 N
15 -1 N
14 -2 N
14 -1 N
15 -1 N
14 -1 N
14 -1 N
14 0 N
15 -1 N
14 0 N
14 0 N
14 -1 N
15 0 N
14 0 N
14 1 N
14 0 N
15 0 N
14 0 N
14 0 N
14 1 N
15 0 N
14 0 N
14 0 N
14 -1 N
15 0 N
14 -1 N
14 0 N
14 -1 N
15 -1 N
14 -1 N
14 -1 N
14 -2 N
15 -1 N
14 -1 N
14 -1 N
15 -2 N
14 -1 N
14 -1 N
14 -1 N
15 -1 N
14 -1 N
14 -1 N
14 -1 N
15 0 N
14 -1 N
14 -1 N
14 0 N
15 -1 N
14 0 N
14 0 N
14 0 N
15 -1 N
14 0 N
14 0 N
14 0 N
15 0 N
14 0 N
14 0 N
14 0 N
15 0 N
14 1 N
14 0 N
14 0 N
15 0 N
14 0 N
14 0 N
14 0 N
15 1 N
14 0 N
14 0 N
15 0 N
14 0 N
14 0 N
14 0 N
15 0 N
14 0 N
14 1 N
14 0 N
15 0 N
14 0 N
14 0 N
14 1 N
15 0 N
14 0 N
14 1 N
14 0 N
15 0 N
14 1 N
14 0 N
14 0 N
15 0 N
14 0 N
14 -1 N
14 0 N
15 -1 N
14 -1 N
14 -1 N
14 -1 N
15 -2 N
14 -1 N
14 -2 N
15 -2 N
14 -2 N
14 -2 N
14 -1 N
15 -2 N
14 -2 N
14 -2 N
14 -1 N
15 -2 N
14 -1 N
14 -2 N
14 -1 N
15 -1 N
14 -1 N
14 -1 N
14 -1 N
15 -1 N
14 -1 N
14 -1 N
14 0 N
15 -1 N
14 0 N
14 -1 N
14 0 N
15 0 N
14 0 N
14 0 N
14 0 N
15 0 N
14 0 N
14 1 N
15 0 N
14 1 N
14 0 N
14 1 N
15 0 N
14 1 N
14 0 N
14 1 N
15 0 N
14 1 N
14 0 N
14 0 N
15 0 N
14 0 N
14 -1 N
14 0 N
15 -1 N
14 -1 N
14 -1 N
14 -1 N
15 -2 N
14 -1 N
14 -2 N
14 -1 N
15 -1 N
14 -2 N
14 -1 N
14 -1 N
15 -2 N
14 -1 N
14 -1 N
15 -1 N
14 -1 N
14 -1 N
14 -1 N
15 -1 N
14 0 N
14 -1 N
14 0 N
15 -1 N
14 0 N
14 -1 N
14 0 N
15 0 N
14 0 N
14 0 N
14 0 N
15 0 N
14 0 N
14 0 N
14 0 N
15 0 N
14 1 N
14 0 N
14 1 N
15 0 N
14 0 N
14 1 N
14 0 N
15 1 N
14 0 N
14 0 N
14 1 N
15 0 N
14 0 N
14 0 N
15 0 N
14 0 N
14 0 N
14 0 N
15 0 N
14 0 N
14 -1 N
14 0 N
15 0 N
14 -1 N
14 0 N
14 -1 N
15 0 N
14 -1 N
14 0 N
14 -1 N
15 0 N
14 -1 N
14 0 N
14 0 N
15 -1 N
14 0 N
14 0 N
14 0 N
15 0 N
14 0 N
14 0 N
14 1 N
15 0 N
14 0 N
0 0 L
432 252 M
0.85 0.775 3.35 7.975 9.35 0 0 4320 3600 WDEF
/Times-Roman 16 SF
solid setdash
0 setgray
2 LW
/Times-Roman 12 SF
446 724 M
15 76 N
14 1 N
14 -15 N
14 14 N
15 -51 N
14 3 N
14 50 N
14 -130 N
15 105 N
14 74 N
14 70 N
14 9 N
15 -45 N
14 -114 N
14 -66 N
14 -30 N
15 85 N
14 11 N
14 4 N
14 7 N
15 -21 N
14 -27 N
14 82 N
14 33 N
15 -45 N
14 -137 N
14 -12 N
14 -10 N
15 58 N
14 36 N
14 -58 N
15 42 N
14 -147 N
14 107 N
14 -34 N
15 102 N
14 40 N
14 -2 N
14 -38 N
15 -129 N
14 9 N
14 8 N
14 95 N
15 -38 N
14 -28 N
14 58 N
14 -46 N
15 -28 N
14 -5 N
14 53 N
14 40 N
15 8 N
14 -20 N
14 -26 N
14 -50 N
15 11 N
14 44 N
14 -9 N
14 -38 N
15 -60 N
14 33 N
14 6 N
15 -50 N
14 91 N
14 29 N
14 -16 N
15 -54 N
14 -17 N
14 51 N
14 28 N
15 -16 N
14 -73 N
14 29 N
14 16 N
15 21 N
14 -7 N
14 -111 N
14 125 N
15 22 N
14 -33 N
14 -57 N
14 -22 N
15 43 N
14 51 N
14 -7 N
14 -42 N
15 47 N
14 9 N
14 -37 N
14 -73 N
15 24 N
14 57 N
14 -10 N
14 -122 N
15 19 N
14 117 N
14 13 N
15 -133 N
14 124 N
14 5 N
14 -170 N
15 150 N
14 -20 N
14 35 N
14 49 N
15 -47 N
14 4 N
14 -47 N
14 20 N
15 -85 N
14 106 N
14 16 N
14 -42 N
15 28 N
14 33 N
14 -41 N
14 41 N
15 28 N
14 -29 N
14 -33 N
14 -164 N
15 168 N
14 -38 N
14 -28 N
14 10 N
15 -3 N
14 39 N
14 12 N
15 -52 N
14 -15 N
14 58 N
14 12 N
15 -58 N
14 -56 N
14 84 N
14 -7 N
15 -194 N
14 192 N
14 17 N
14 -23 N
15 -32 N
14 -151 N
14 161 N
14 24 N
15 -48 N
14 -19 N
14 5 N
14 61 N
15 -7 N
14 -86 N
14 35 N
14 28 N
15 -36 N
14 -161 N
14 151 N
14 59 N
15 25 N
14 -9 N
14 -47 N
15 -88 N
14 31 N
14 43 N
14 10 N
15 0 N
14 12 N
14 -14 N
14 -100 N
15 -127 N
14 231 N
14 54 N
14 -3 N
15 -40 N
14 -43 N
14 -28 N
14 -30 N
15 69 N
14 63 N
14 16 N
14 -20 N
15 -48 N
14 -144 N
14 119 N
14 57 N
15 -8 N
14 -88 N
14 7 N
14 -5 N
15 -59 N
14 48 N
14 31 N
15 51 N
14 -13 N
14 -116 N
14 126 N
15 -75 N
14 52 N
14 5 N
14 -162 N
15 21 N
14 97 N
14 27 N
14 8 N
15 -93 N
14 89 N
14 2 N
14 -1 N
15 14 N
14 -15 N
14 -21 N
14 28 N
15 31 N
14 -3 N
14 -51 N
14 -26 N
15 -5 N
14 86 N
14 -4 N
14 -110 N
15 -21 N
14 64 N
14 18 N
14 0 N
15 3 N
14 -28 N
14 -1 N
15 39 N
14 -47 N
14 20 N
14 24 N
15 -23 N
14 27 N
14 14 N
14 -6 N
15 -30 N
14 43 N
14 8 N
14 -78 N
15 30 N
14 31 N
14 -45 N
14 -27 N
15 71 N
14 38 N
14 -38 N
14 -78 N
15 81 N
14 -17 N
14 46 N
14 -17 N
15 -109 N
14 58 N
14 -117 N
14 112 N
15 29 N
14 39 N
0 0 L
432 252 M
CLOSE
