%!PS-Adobe-1.0
%%BoundingBox: 88 247 418 447
% pslw.pro	Prolog file for plt with the LaserWriter
% 
count /numstack exch def
save 100 dict begin /pslw exch def

/ED	{exch def} def
/IN	{exch 72 mul def} def

/CLOSE	{count numstack sub {pop} repeat pslw end restore} def

/BF	{gsave INIT} def
/EF	{grestore} def

/LS	{} def
/INIT	{0 setlinecap LS /DMTX matrix currentmatrix def
	/XOFF [0 0 0 -.5 -1 -1 -1 -.5 -.5 -.5 -.6 -.6] def
	/YOFF [0 -.37 -1 -1 -1 -.37 0 0 -.37 .25 -1.25 .25] def
	/XM 0 def /YM 0 def /XYM 0 def} def

/WSUBST	{} def

/WDEF	{/ury ED /urx ED /lly ED /llx ED
	WSUBST /y1 IN /x1 IN /y0 IN /x0 IN /FSCL ED
	gsave matrix setmatrix
	x0 2 add y0 2 add translate 
	x1 x0 sub 4 sub urx llx sub div
	y1 y0 sub 4 sub ury lly sub div scale
	llx neg lly neg translate
	/PMTX matrix currentmatrix def grestore} def

/M	{newpath PMTX transform moveto} def
/N	{PMTX dtransform rlineto} def
/L	{N currentpoint stroke moveto} def
/F	{closepath 0 eq {fill} {FS} ifelse} def
/FS	{currentgray dup FILL 0 setgray stroke setgray} def

/T	{/ang ED /pos ED M ang rotate
	/str ED str stringwidth pop
	XOFF pos get mul
	YOFF pos get PS mul XYM FSCL mul add
	rmoveto str show
	/XYM 0 def SDM} def

/GT	{7 0 T} def
/XT	{/XYM XM neg def 3 0 T /XM 0 def} def
/XTR	{/XYM XM def 7 0 T /XM 0 def} def
/YT	{/XYM YM def 7 90 T /YM 0 def} def
/YTR	{/XYM YM neg def 3 90 T /YM 0 def} def

/XN	{/XM PS def 3 0 T} def
/XNR	{/XM PS def 9 0 T} def
/XE	{10 1.25 XEX} def
/XER	{11 1.5 XEX} def
/XEX	{6 -1 roll /exp ED PS mul /XM ED 0 T EX} def

/YN	{-1 1 0 YNUM} def
/YNR	{1 0 0 YNUM} def
/YE	{-1 1 YEX} def
/YER	{1 0 YEX} def

/YEX	{6 -1 roll /exp ED exp stringwidth pop .65 mul YNUM EX} def
/YNUM	{6 3 roll M /str ED str stringwidth pop add /len ED
	len mul .2 PS mul add mul PS -.37 mul rmoveto
	str show /YM len .2 PS mul add YM MAX def} def

/EX	{0 PS .6 mul rmoveto .65 .65 scale exp show SDM} def

/SP	{/y ED /x ED /yp ED /yn ED /str ED
	x y M currentpoint
	str false charpath PBOX newpath
	exch dup add x0 x1 add 2 div sub
	exch dup add y0 y1 add 2 div sub moveto
	str false charpath gsave fill EB} def

/SY	{/y ED /x ED /yp ED /yn ED /st ED
	newpath x y M PS 4 div dup scale
	[{CIR} {UTRI} {DI} {SQ} {TRI}] st 5 mod get exec
	closepath SDM gsave 
	[{1 FILL stroke} {fill} {stroke}] st 5 idiv 3 mod get exec
	EB} def

/EB {	grestore PMTX concat PBOX SDM
	y1 y sub yp le {yp y1 EB2} if 
	y0 y sub yn ge {yn y0 EB2} if} def
/EB2	{newpath x exch M 0 exch N x0 x sub 0 N x1 x0 sub 0 N stroke} def

/CIR	{currentpoint newpath 1.1 0 360 arc} def
/TRI	{0 1.2 rmoveto -1.2 -2.4 rlineto 2.4 0 rlineto} def
/DI	{ 0 -1.5 rmoveto 1.3 1.5 rlineto
	-1.3 1.5  rlineto -1.3 -1.5 rlineto} def
/UTRI	{180 rotate TRI 180 rotate} def
/SQ	{1 1 rmoveto -2 0 rlineto 0 -2 rlineto 2 0
	rlineto} def

/LW	{.2 mul FSCL mul setlinewidth} def
/SF	{FSCL mul /PS ED findfont PS scalefont setfont} def
/DL	{PS mul .05 mul} def

/solid		{{}0} def
/dotted		{[1 DL 3 DL] 0} def
/longdashed	{[7 DL] 0} def
/shortdashed	{[4 DL 5 DL] 0} def
/dotdashed	{[1 DL 5 DL 6 DL 5 DL] 0} def

/MAX	{2 copy lt {exch pop} {pop} ifelse} def
/SDM	{DMTX setmatrix} def
/FILL	{gsave setgray fill grestore} def
/PBOX	{pathbbox /y1 ED /x1 ED /y0 ED /x0 ED} def
/WSUBST { pop pop pop pop pop 0.60 1.25 3.50  6.00  6.65} def
INIT
0.85 0.775 3.35 7.975 9.35 0 0 4320 3600 WDEF
/Times-Roman 16 SF
solid setdash
0 setgray
3 LW
/Times-Roman 13 SF
4082 1907 M
-3650 0 L
432 1879 M
0 28 L
1162 1865 M
0 42 L
(360) 1162 1865 XN
1892 1879 M
0 28 L
2622 1865 M
0 42 L
(480) 2622 1865 XN
3352 1879 M
0 28 L
4082 1865 M
0 42 L
(600) 4082 1865 XN
4 LW
/Times-Roman 15 SF
(Time \(sec\)) 2257 1788 XT
3 LW
/Times-Roman 13 SF
432 3060 M
0 -1153 L
390 1907 M
42 0 L
(-100) 390 1907 YN
404 2051 M
28 0 L
390 2195 M
42 0 L
(-50) 390 2195 YN
404 2339 M
28 0 L
390 2484 M
42 0 L
(0) 390 2484 YN
404 2628 M
28 0 L
390 2772 M
42 0 L
(50) 390 2772 YN
404 2916 M
28 0 L
390 3060 M
42 0 L
(100) 390 3060 YN
4 LW
/Times-Roman 15 SF
(Axis) 164 2483 YT
/Times-Roman 12 SF
444 2264 M
10 496 N
9 -542 N
10 -103 N
9 755 N
10 -242 N
10 -387 N
10 98 N
10 542 N
10 -5 N
10 -652 N
9 404 N
10 288 N
10 -421 N
10 -369 N
10 703 N
10 52 N
10 -668 N
9 -70 N
10 -126 N
10 639 N
9 -23 N
10 -115 N
10 17 N
9 29 N
9 -351 N
9 369 N
9 -12 N
10 173 N
10 -161 N
9 -87 N
10 -467 N
9 663 N
9 -104 N
10 -86 N
9 -277 N
10 386 N
10 -86 N
10 -139 N
10 162 N
10 104 N
9 -179 N
10 -409 N
11 542 N
10 92 N
11 -265 N
10 17 N
10 259 N
9 -357 N
10 -248 N
10 646 N
10 -23 N
10 -629 N
11 548 N
9 207 N
9 -582 N
10 81 N
9 565 N
10 -185 N
10 -709 N
10 848 N
9 -12 N
9 -703 N
10 392 N
9 277 N
9 -214 N
10 -628 N
10 813 N
9 -438 N
7 -35 N
11 628 N
10 -17 N
0 0 L
1150 2547 M
9 -513 N
10 865 N
9 -392 N
8 -64 N
9 565 N
8 -524 N
9 -295 N
8 548 N
9 -190 N
9 -525 N
9 692 N
9 58 N
9 -577 N
8 156 N
9 496 N
8 -127 N
9 -657 N
10 715 N
9 -98 N
8 -196 N
10 -433 N
8 807 N
9 -57 N
9 -531 N
9 -63 N
9 622 N
10 -155 N
10 -640 N
9 778 N
9 -115 N
9 -358 N
10 346 N
9 64 N
10 -254 N
10 -115 N
10 461 N
9 -12 N
10 -513 N
9 623 N
10 35 N
10 -508 N
10 -213 N
9 605 N
10 -121 N
9 -207 N
9 92 N
8 0 N
9 -300 N
9 115 N
9 -109 N
9 17 N
9 -75 N
0 0 L
1641 2293 M
9 92 N
8 -409 N
10 271 N
9 110 N
9 -35 N
9 -346 N
9 456 N
9 92 N
9 -69 N
9 -427 N
10 254 N
10 207 N
9 -346 N
9 -46 N
9 427 N
9 -40 N
9 -531 N
10 346 N
9 202 N
10 -190 N
0 0 L
1844 2420 M
9 98 N
9 -161 N
9 -433 N
9 513 N
9 12 N
10 -392 N
10 109 N
9 346 N
9 -519 N
9 81 N
10 444 N
9 -254 N
10 -345 N
10 628 N
9 -46 N
9 -450 N
0 0 L
2012 2530 M
9 23 N
0 0 L
2050 2311 M
2068 2017 M
8 518 N
9 -501 N
9 121 N
9 305 N
9 -80 N
9 -392 N
0 0 L
2138 2397 M
9 -23 N
0 0 L
2163 2449 M
9 92 N
9 -11 N
9 -369 N
8 276 N
9 254 N
8 -363 N
8 -300 N
9 519 N
8 17 N
9 -219 N
0 0 L
2268 2189 M
9 214 N
8 -150 N
0 0 L
2312 2311 M
9 -352 N
0 0 L
2340 1953 M
9 213 N
9 81 N
9 29 N
8 184 N
9 -213 N
9 -58 N
9 416 N
10 -87 N
9 -138 N
9 -254 N
9 496 N
9 -6 N
9 -369 N
9 231 N
10 0 N
10 -121 N
10 -156 N
10 300 N
9 -104 N
9 -311 N
10 421 N
10 86 N
8 -236 N
12 -196 N
10 155 N
9 75 N
9 -351 N
10 478 N
9 -133 N
10 -190 N
10 18 N
10 357 N
9 -110 N
10 -322 N
9 374 N
9 173 N
10 -276 N
9 -283 N
10 548 N
10 92 N
9 -594 N
9 -127 N
10 531 N
9 0 N
9 -75 N
9 -444 N
10 380 N
9 87 N
9 -409 N
9 224 N
8 404 N
9 -17 N
10 -208 N
9 -340 N
9 380 N
9 156 N
9 -167 N
8 -202 N
9 548 N
9 69 N
9 -392 N
10 -294 N
10 588 N
9 -98 N
9 -444 N
9 -231 N
9 531 N
10 -23 N
10 -369 N
10 17 N
10 381 N
10 -156 N
10 -334 N
9 5 N
10 583 N
10 -260 N
10 -357 N
11 328 N
10 162 N
9 -438 N
10 248 N
10 253 N
10 -455 N
10 -92 N
10 392 N
10 -404 N
10 196 N
9 294 N
10 -288 N
10 -312 N
10 623 N
10 -34 N
10 -554 N
10 -17 N
10 576 N
10 -369 N
9 -248 N
10 502 N
11 23 N
9 -432 N
10 265 N
10 421 N
9 -767 N
10 52 N
9 594 N
10 75 N
10 -692 N
10 86 N
10 525 N
9 -75 N
9 -467 N
9 236 N
10 560 N
10 -231 N
10 -559 N
9 248 N
10 484 N
9 -133 N
9 -611 N
9 254 N
10 392 N
10 -225 N
9 -473 N
10 565 N
9 52 N
9 -300 N
9 -178 N
9 386 N
10 104 N
9 -191 N
9 -305 N
10 646 N
8 -18 N
9 -582 N
9 346 N
10 98 N
9 -104 N
10 -513 N
10 634 N
9 23 N
9 -115 N
10 -444 N
9 392 N
9 156 N
11 -387 N
10 -109 N
9 559 N
10 -236 N
9 -225 N
9 -35 N
10 415 N
9 41 N
10 -404 N
10 -57 N
10 501 N
9 -11 N
9 -387 N
10 208 N
9 248 N
10 -41 N
10 -524 N
9 184 N
10 335 N
9 17 N
10 -525 N
9 635 N
9 -168 N
10 -449 N
10 196 N
10 230 N
9 -103 N
9 -358 N
10 115 N
9 542 N
9 -196 N
10 -253 N
10 -139 N
9 444 N
9 -29 N
10 -323 N
9 -115 N
9 640 N
10 -127 N
0 0 L
432 1907 M
0.85 0.775 3.35 7.975 9.35 0 0 4320 3600 WDEF
/Times-Roman 16 SF
solid setdash
0 setgray
3 LW
/Times-Roman 13 SF
4082 252 M
-3650 0 L
432 210 M
0 42 L
(0.0) 432 210 XN
797 224 M
0 28 L
1162 210 M
0 42 L
(0.1) 1162 210 XN
1527 224 M
0 28 L
1892 210 M
0 42 L
(0.2) 1892 210 XN
2257 224 M
0 28 L
2622 210 M
0 42 L
(0.3) 2622 210 XN
2987 224 M
0 28 L
3352 210 M
0 42 L
(0.4) 3352 210 XN
3717 224 M
0 28 L
4082 210 M
0 42 L
(0.5) 4082 210 XN
4 LW
/Times-Roman 15 SF
(Frequency \(Hz\)) 2257 133 XT
3 LW
/Times-Roman 13 SF
432 1403 M
0 -1151 L
390 252 M
42 0 L
(0.0) 390 252 YN
404 482 M
28 0 L
390 712 M
42 0 L
(0.1) 390 712 YN
404 943 M
28 0 L
390 1173 M
42 0 L
(0.2) 390 1173 YN
404 1403 M
28 0 L
4 LW
/Times-Roman 15 SF
(Power) 164 827 YT
/Times-Roman 12 SF
462 1398 M
25 -315 N
24 -667 N
25 -61 N
24 -56 N
24 -4 N
25 151 N
24 -157 N
24 32 N
25 131 N
24 -70 N
25 -124 N
24 9 N
24 67 N
25 216 N
24 -213 N
25 28 N
24 -62 N
24 -37 N
25 10 N
24 60 N
24 -73 N
25 39 N
24 -24 N
25 2 N
24 6 N
24 -10 N
25 -18 N
24 2 N
24 0 N
25 0 N
24 -3 N
25 16 N
24 -16 N
24 12 N
25 9 N
24 -23 N
24 34 N
25 -23 N
24 22 N
25 -23 N
24 -7 N
24 5 N
25 21 N
24 6 N
24 -15 N
25 -8 N
24 37 N
25 32 N
24 -77 N
24 -2 N
25 8 N
24 17 N
24 -15 N
25 40 N
24 -45 N
25 -5 N
24 8 N
24 36 N
25 80 N
24 -65 N
24 -31 N
25 24 N
24 -33 N
25 -12 N
24 7 N
24 22 N
25 47 N
24 -24 N
25 -37 N
24 -26 N
24 20 N
25 -7 N
24 1 N
24 -1 N
25 -4 N
24 7 N
25 -6 N
24 -6 N
24 0 N
25 -1 N
24 90 N
24 -47 N
25 2 N
24 63 N
25 -42 N
24 -17 N
24 40 N
25 19 N
24 -89 N
24 14 N
25 42 N
24 41 N
25 -18 N
24 317 N
24 -263 N
25 -90 N
24 461 N
24 450 N
25 -733 N
24 207 N
25 86 N
24 -16 N
24 -144 N
25 143 N
24 -137 N
24 -33 N
25 13 N
24 272 N
25 87 N
24 -430 N
24 -117 N
25 172 N
24 -19 N
24 147 N
25 -358 N
24 -52 N
25 15 N
24 -6 N
24 -39 N
25 -24 N
24 -5 N
25 3 N
24 42 N
24 -8 N
25 -11 N
24 8 N
24 -33 N
25 11 N
24 31 N
25 43 N
24 -31 N
24 -34 N
25 -3 N
24 -10 N
24 126 N
25 -1 N
24 -83 N
25 -18 N
24 -11 N
24 2 N
25 -16 N
24 -4 N
24 17 N
25 -7 N
24 3 N
25 -15 N
24 1 N
24 3 N
0 0 L
432 252 M
CLOSE
